<?xml version="1.0" standalone="no"?>
<!DOCTYPE svg PUBLIC "-//W3C//DTD SVG 20010904//EN"
 "http://www.w3.org/TR/2001/REC-SVG-20010904/DTD/svg10.dtd">
<svg version="1.0" xmlns="http://www.w3.org/2000/svg"
 width="500.000000pt" height="682.000000pt" viewBox="0 0 500.000000 682.000000"
 preserveAspectRatio="xMidYMid meet">

<g transform="translate(0.000000,682.000000) scale(0.100000,-0.100000)"
fill="#000000" stroke="none">
<path d="M3801 6132 c-6 -12 -9 -22 -5 -22 4 0 -1 -9 -10 -19 -10 -11 -16 -28
-13 -38 3 -13 10 -4 26 31 22 50 24 89 2 48z"/>
<path d="M2475 6119 c-831 -85 -1751 -500 -1949 -879 -32 -61 -40 -87 -44
-147 -4 -64 -1 -79 22 -127 45 -92 143 -164 267 -197 135 -35 286 -42 709 -30
514 14 615 3 734 -78 50 -35 56 -37 56 -18 0 6 11 36 25 64 59 128 256 283
590 463 231 125 353 208 455 309 110 109 150 185 150 285 0 168 -133 280 -400
337 -111 23 -463 34 -615 18z m525 -78 c249 -44 420 -149 420 -259 0 -29 -16
-52 -35 -52 -5 1 -26 33 -45 73 -47 95 -89 127 -206 156 -245 58 -619 62 -919
10 -157 -28 -216 -16 -134 26 36 19 201 53 311 65 142 15 477 4 608 -19z m-66
-111 c-5 -5 -31 -16 -56 -24 -41 -12 -49 -12 -59 0 -15 19 -8 25 49 45 40 14
49 15 62 3 9 -9 11 -17 4 -24z m24 -47 c42 -116 102 -286 102 -288 0 -7 -112
-36 -117 -31 -7 7 -115 307 -111 311 6 5 93 33 105 34 6 1 16 -11 21 -26z
m-121 -178 c57 -152 58 -172 16 -217 -49 -51 -234 -108 -307 -94 -43 8 -92 47
-84 67 3 8 27 20 52 27 40 10 50 10 69 -3 47 -33 157 -7 180 42 7 16 7 30 -1
48 l-12 26 -37 -20 c-57 -29 -141 -51 -192 -51 -63 0 -105 27 -126 83 -15 40
-15 47 -1 80 8 20 30 46 48 57 43 26 155 60 200 60 19 0 38 3 42 8 12 11 69
31 86 29 9 -1 34 -56 67 -142z m-517 2 c0 -2 23 -65 50 -141 28 -76 50 -147
50 -159 0 -30 -69 -90 -134 -115 -138 -53 -246 -51 -283 4 -19 30 -13 37 50
54 42 11 50 11 65 -4 23 -20 70 -21 122 0 48 19 64 44 55 85 -8 34 -6 34 -53
10 -54 -27 -144 -51 -192 -51 -55 0 -94 22 -114 64 -25 53 -21 103 12 135 33
33 128 71 197 78 27 3 64 11 80 18 53 22 95 32 95 22z m-456 -196 c20 -19 96
-206 96 -238 0 -5 -26 -15 -57 -22 -32 -7 -74 -21 -93 -31 -56 -29 -156 -60
-195 -60 -57 0 -103 24 -122 64 -16 34 -16 38 0 71 9 19 34 45 55 59 45 28
161 66 203 66 34 0 37 10 9 35 -14 13 -30 16 -58 12 -50 -6 -112 -36 -120 -56
-7 -21 -20 -29 -65 -42 -21 -5 -45 -13 -53 -16 -22 -8 -18 49 6 80 20 26 121
70 215 94 73 18 150 12 179 -16z m-485 -58 c27 -70 111 -308 111 -318 0 -10
-110 -48 -117 -41 -1 1 -18 45 -37 97 -18 52 -37 94 -42 94 -4 0 -15 -51 -24
-112 -9 -62 -18 -114 -21 -116 -6 -6 -70 -27 -80 -27 -5 0 -48 36 -96 80 -48
44 -88 78 -90 76 -2 -2 10 -41 27 -87 16 -45 30 -88 30 -95 0 -12 -108 -50
-116 -41 -12 11 -125 340 -119 345 3 4 41 17 83 29 l77 22 40 -37 c22 -20 64
-59 92 -86 29 -28 54 -48 57 -45 2 2 12 56 22 119 l19 115 80 27 c44 15 83 27
86 27 4 1 12 -11 18 -26z m-779 -346 c2 -123 89 -217 230 -246 30 -7 108 -16
172 -20 116 -8 165 -24 136 -42 -22 -14 -219 -10 -285 6 -130 31 -264 110
-299 176 -21 42 -18 121 7 153 27 34 39 25 39 -27z m1372 -258 c54 -11 78 -24
78 -40 0 -6 -87 -8 -202 -7 -182 3 -203 5 -206 20 -2 12 7 20 30 27 46 13 237
13 300 0z"/>
<path d="M2563 5725 c-29 -12 -53 -41 -53 -62 0 -24 43 -53 78 -53 91 1 158
64 117 110 -22 24 -93 27 -142 5z"/>
<path d="M2090 5581 c-65 -34 -45 -111 29 -111 90 1 157 65 116 110 -24 26
-98 27 -145 1z"/>
<path d="M1692 5345 c-46 -14 -82 -40 -82 -60 0 -7 9 -20 21 -31 20 -18 23
-18 87 -1 93 25 122 55 86 91 -19 19 -54 19 -112 1z"/>
<path d="M4118 6123 c7 -3 16 -2 19 1 4 3 -2 6 -13 5 -11 0 -14 -3 -6 -6z"/>
<path d="M4160 6115 c0 -12 93 -45 112 -40 22 8 13 27 -10 23 -10 -1 -21 0
-27 4 -16 9 -75 20 -75 13z"/>
<path d="M3963 6085 c-3 -9 -3 -19 1 -22 3 -3 1 -12 -4 -18 -8 -9 -4 -14 15
-17 14 -3 28 -1 31 3 3 5 12 9 20 9 11 0 13 -6 9 -20 -3 -11 -2 -20 3 -20 10
0 26 29 24 43 -1 4 3 7 9 7 5 0 7 5 4 10 -4 6 -11 8 -16 4 -5 -3 -17 0 -26 7
-13 11 -17 10 -28 -4 -15 -20 -28 -8 -19 17 3 9 1 16 -5 16 -7 0 -14 -7 -18
-15z"/>
<path d="M4332 6048 c9 -8 43 -23 75 -33 32 -10 68 -22 80 -28 11 -5 26 -8 33
-5 14 4 -130 67 -173 74 -28 5 -30 4 -15 -8z"/>
<path d="M4092 6038 c-7 -7 -12 -22 -12 -35 0 -18 7 -23 38 -28 20 -4 58 -17
83 -31 55 -28 63 -30 55 -8 -3 8 -1 24 4 35 7 13 7 19 0 19 -5 0 -10 -4 -10
-8 0 -5 -7 -17 -16 -28 -15 -18 -15 -17 -10 16 l6 35 -20 -25 -20 -25 0 33 c0
33 -14 43 -24 17 -3 -8 -10 -15 -17 -15 -6 0 -8 7 -5 16 6 15 -14 44 -31 44
-5 0 -14 -5 -21 -12z m38 -22 c0 -8 -5 -18 -11 -22 -14 -8 -33 11 -25 25 10
16 36 13 36 -3z"/>
<path d="M3736 6004 c-3 -9 -6 -23 -6 -32 1 -15 3 -14 15 2 17 22 20 46 6 46
-5 0 -12 -7 -15 -16z"/>
<path d="M4280 5948 l0 -31 25 23 c29 27 32 35 10 26 -8 -3 -15 -1 -15 4 0 6
-4 10 -10 10 -5 0 -10 -14 -10 -32z"/>
<path d="M4346 5932 l-17 -33 26 7 c20 5 24 3 19 -10 -5 -12 -2 -15 10 -10 9
3 16 2 16 -4 0 -5 8 -12 18 -16 9 -3 22 -9 29 -12 8 -3 10 2 6 16 -4 13 0 25
8 30 7 5 11 12 7 15 -3 4 -15 -4 -27 -16 l-21 -23 0 34 c0 25 -3 31 -11 23 -9
-9 -16 -6 -29 10 l-17 21 -17 -32z"/>
<path d="M3695 5918 c-19 -47 -6 -58 16 -13 22 45 22 45 9 45 -6 0 -17 -15
-25 -32z"/>
<path d="M4025 5920 c-9 -16 -13 -30 -9 -30 9 0 44 41 44 52 0 19 -21 6 -35
-22z"/>
<path d="M3764 5915 c-3 -8 -3 -18 0 -24 4 -5 1 -13 -6 -17 -7 -5 -4 -10 12
-16 14 -5 27 -5 34 2 16 16 26 12 26 -10 0 -28 18 -25 26 5 3 14 10 25 16 25
21 0 -4 18 -33 24 -23 4 -35 2 -44 -10 -11 -16 -12 -16 -18 0 -4 9 -2 16 3 16
6 0 10 5 10 10 0 15 -20 12 -26 -5z"/>
<path d="M4059 5909 c-13 -25 0 -43 34 -45 12 -1 29 -4 37 -8 10 -4 19 2 26
18 13 27 1 48 -21 40 -7 -3 -16 -1 -20 5 -11 18 -44 12 -56 -10z m41 -3 c0
-15 -18 -31 -26 -23 -7 7 7 37 17 37 5 0 9 -6 9 -14z"/>
<path d="M4190 5864 c-11 -27 -6 -44 11 -44 6 0 7 5 4 10 -4 6 1 22 9 35 15
22 15 25 1 25 -9 0 -20 -12 -25 -26z"/>
<path d="M4486 5875 c-3 -8 -1 -15 4 -15 13 0 22 18 11 24 -5 3 -11 -1 -15 -9z"/>
<path d="M3885 5860 c-26 -29 -12 -48 40 -55 25 -4 48 -11 51 -16 4 -8 69 -39
80 -39 2 0 1 7 -2 15 -4 8 -1 15 7 15 7 0 9 3 6 7 -4 3 -2 12 4 20 9 10 8 13
-3 13 -8 0 -20 -12 -27 -27 -8 -18 -15 -23 -22 -16 -8 8 -7 17 0 32 7 12 8 21
3 21 -5 0 -14 -10 -20 -22 -10 -22 -11 -21 -11 10 -1 37 -6 39 -34 15 -20 -17
-20 -17 -14 1 5 12 1 23 -10 32 -24 18 -27 17 -48 -6z m45 -14 c0 -8 -5 -18
-11 -22 -14 -8 -33 11 -25 25 10 16 36 13 36 -3z"/>
<path d="M4234 5846 c-10 -21 -8 -25 11 -34 12 -5 33 -8 47 -5 20 4 26 0 31
-17 4 -17 11 -21 26 -17 12 3 21 1 21 -5 0 -6 7 -8 15 -4 8 3 15 0 15 -7 0 -7
7 1 15 17 17 32 11 49 -15 41 -11 -3 -20 1 -24 11 -4 10 -13 14 -26 11 -10 -3
-24 1 -31 9 -17 20 -24 18 -39 -13 -7 -17 -14 -23 -17 -15 -3 7 0 19 6 26 9
10 8 15 -5 20 -8 3 -16 6 -17 6 -1 0 -7 -11 -13 -24z m130 -35 c3 -5 -1 -14
-8 -20 -16 -13 -32 2 -21 19 8 12 22 13 29 1z"/>
<path d="M3652 5822 c-20 -37 -21 -47 -11 -81 13 -44 35 -59 134 -94 39 -13
111 -39 160 -56 135 -47 156 -53 162 -47 3 3 0 8 -8 10 -8 3 -34 12 -59 20
-25 8 -70 25 -100 36 -67 26 -153 57 -200 73 -61 20 -89 71 -64 118 8 17 14
38 12 47 -3 12 -11 3 -26 -26z"/>
<path d="M3755 5780 c-16 -30 -16 -31 8 -25 19 5 25 2 30 -16 4 -16 11 -20 26
-16 13 3 24 -1 30 -10 5 -10 16 -14 30 -10 11 3 21 1 21 -5 0 -5 4 -7 9 -4 5
4 11 0 14 -6 7 -20 18 -4 20 28 1 20 -3 29 -13 29 -8 0 -18 5 -23 10 -4 6 -10
0 -13 -12 -4 -13 -13 -23 -21 -23 -10 0 -13 6 -9 16 7 18 -19 47 -44 49 -10 1
-25 7 -34 14 -12 10 -17 8 -31 -19z m75 -24 c0 -8 -4 -17 -9 -21 -12 -7 -24
12 -16 25 9 15 25 12 25 -4z"/>
<path d="M4087 5783 c-15 -28 -15 -32 -1 -37 27 -10 46 -7 60 12 18 23 17 32
-1 32 -8 0 -15 -4 -15 -10 0 -20 -19 -9 -22 13 -3 21 -5 20 -21 -10z"/>
<path d="M4154 5755 c-15 -23 -12 -45 5 -45 5 0 11 8 14 18 2 9 8 25 12 35 11
26 -12 21 -31 -8z"/>
<path d="M4196 5744 c-9 -23 -7 -36 3 -30 5 3 12 -2 16 -12 6 -15 9 -13 21 11
16 30 41 38 29 10 -17 -43 -16 -46 8 -18 21 25 23 31 10 38 -8 5 -26 6 -40 3
-16 -5 -22 -3 -18 4 3 5 0 10 -8 10 -8 0 -18 -7 -21 -16z"/>
<path d="M3972 5696 c-9 -19 -8 -27 4 -36 11 -10 14 -9 14 8 0 11 3 27 6 36
10 26 -12 18 -24 -8z"/>
<path d="M4318 5695 c-9 -20 -9 -28 2 -38 10 -10 12 -9 7 6 -4 9 -3 17 2 17 5
0 11 9 14 20 7 29 -11 25 -25 -5z"/>
<path d="M4020 5699 c0 -5 5 -7 10 -4 6 3 10 8 10 11 0 2 -4 4 -10 4 -5 0 -10
-5 -10 -11z"/>
<path d="M4361 5684 c-13 -30 -14 -37 -2 -30 5 4 11 1 13 -5 5 -16 48 11 48
29 0 10 -4 10 -16 -2 -21 -21 -27 -20 -19 3 9 29 -11 34 -24 5z"/>
<path d="M4060 5681 c-15 -28 -12 -48 6 -55 14 -5 15 -4 4 9 -8 10 -9 15 -1
15 6 0 11 7 11 15 0 8 5 15 11 15 5 0 7 5 4 10 -10 16 -23 12 -35 -9z"/>
<path d="M4110 5660 c0 -10 -5 -22 -11 -25 -6 -4 1 -13 17 -21 19 -10 31 -11
38 -4 15 15 36 12 30 -4 -6 -16 12 -30 41 -32 11 -1 27 -4 36 -8 12 -5 18 -1
22 13 3 12 11 21 17 21 8 0 10 -9 5 -27 l-6 -27 19 25 c23 27 20 39 -8 39 -10
0 -21 4 -25 10 -3 5 -12 7 -19 4 -8 -3 -17 -1 -21 5 -3 6 -17 11 -31 11 -13 0
-24 5 -24 10 0 17 -21 11 -42 -12 l-19 -23 5 26 c4 19 1 29 -9 33 -10 3 -15
-1 -15 -14z m120 -44 c0 -16 -18 -31 -27 -22 -8 8 5 36 17 36 5 0 10 -6 10
-14z"/>
<path d="M4342 5567 l-23 -24 25 -5 c15 -3 26 -1 26 3 0 5 -6 9 -12 9 -10 0
-9 3 1 9 7 5 12 14 10 20 -3 8 -13 3 -27 -12z"/>
<path d="M4124 5525 c22 -17 36 -19 36 -6 0 10 -24 21 -43 21 -7 0 -3 -7 7
-15z"/>
<path d="M4180 5510 c0 -10 130 -53 138 -45 3 2 -4 8 -14 11 -10 4 -41 15 -67
26 -55 21 -57 21 -57 8z"/>
<path d="M3227 5283 c-3 -5 1 -21 8 -38 9 -19 14 -24 14 -12 1 19 16 23 26 7
3 -5 11 -10 17 -10 7 0 7 5 -1 14 -6 8 -10 19 -9 26 2 7 -3 15 -10 17 -8 3
-10 -1 -6 -11 4 -11 1 -16 -11 -16 -11 0 -15 5 -11 15 5 15 -9 21 -17 8z"/>
<path d="M3207 5209 c7 -7 15 -10 18 -7 3 3 -2 9 -12 12 -14 6 -15 5 -6 -5z"/>
<path d="M3195 5120 c-15 -7 -11 -8 19 -7 39 2 39 2 62 -57 13 -32 25 -60 27
-62 2 -2 21 2 43 11 l39 14 -41 -6 -42 -5 -19 58 c-21 62 -41 75 -88 54z"/>
<path d="M3718 5093 c7 -3 16 -2 19 1 4 3 -2 6 -13 5 -11 0 -14 -3 -6 -6z"/>
<path d="M3575 5080 c-13 -5 -14 -9 -5 -9 8 0 24 4 35 9 13 5 14 9 5 9 -8 0
-24 -4 -35 -9z"/>
<path d="M3777 5070 c38 -23 47 -38 83 -146 28 -82 28 -83 11 -118 l-18 -35
28 -11 c38 -16 50 -32 77 -104 44 -113 42 -150 -11 -190 -41 -31 -223 -89
-348 -110 -168 -29 -346 -84 -564 -176 -38 -16 -119 -43 -180 -60 -60 -18
-175 -51 -255 -75 -80 -24 -208 -62 -285 -85 -77 -23 -167 -50 -200 -60 -100
-32 -465 -141 -543 -163 -39 -11 -70 -22 -68 -25 5 -4 244 63 421 118 112 35
314 96 510 154 83 24 203 60 268 80 65 20 126 36 135 36 19 -1 -131 -75 -303
-150 -434 -189 -658 -254 -924 -267 -125 -6 -134 -5 -128 11 6 14 3 16 -16 9
-28 -10 -72 -10 -114 -1 -30 7 -33 5 -33 -16 0 -21 -10 -27 -83 -49 -45 -14
-151 -46 -235 -72 -83 -25 -159 -45 -168 -43 -9 2 -39 43 -67 91 l-50 88 16
56 c9 31 15 59 12 61 -2 2 -12 -22 -21 -54 l-17 -59 42 -80 c23 -44 50 -90 59
-102 l17 -23 135 41 c74 22 186 56 248 76 63 19 116 33 119 30 2 -3 31 -113
63 -245 78 -317 67 -292 137 -293 49 0 55 -2 39 -12 -104 -64 -265 -178 -305
-215 -41 -39 -49 -51 -44 -74 7 -37 29 -42 66 -16 57 41 98 57 128 51 28 -5
40 9 19 22 -34 21 38 117 98 131 15 4 50 20 78 36 28 15 60 28 72 28 17 0 22
6 22 28 0 27 1 27 123 51 217 42 442 126 847 316 91 42 172 81 181 85 126 64
478 191 629 227 125 29 390 42 505 25 38 -6 71 -10 73 -7 2 2 -29 134 -68 294
l-73 291 -74 0 c-43 0 -72 4 -68 9 3 5 39 20 81 32 97 29 144 69 144 124 0 46
-45 176 -71 204 -10 11 -26 24 -36 29 -14 8 -15 14 -4 40 11 27 10 40 -9 99
-13 37 -31 84 -41 105 -19 37 -62 78 -83 78 -6 0 3 -9 21 -20z m-33 -872 c8
-29 14 -53 13 -54 -10 -8 -65 -12 -75 -6 -7 5 -19 30 -27 55 -13 44 -13 47 4
47 14 0 22 -11 28 -37 5 -21 13 -36 18 -34 6 1 9 6 9 10 -15 68 -15 71 -1 71
10 0 21 -19 31 -52z m76 47 c0 -3 -5 -14 -11 -24 -9 -13 -9 -26 -1 -50 10 -27
9 -31 -7 -31 -14 0 -22 12 -30 44 -16 63 -15 66 19 66 17 0 30 -2 30 -5z m70
-4 c0 -5 -6 -11 -12 -14 -9 -3 -6 -12 10 -29 12 -13 22 -31 22 -40 0 -19 -24
-30 -45 -22 -20 8 -19 24 2 24 13 0 11 6 -11 29 -33 34 -29 61 9 61 14 0 25
-4 25 -9z m-271 -19 c26 -20 32 -79 10 -93 -60 -38 -125 55 -67 95 28 20 31
20 57 -2z m-101 -59 c-4 -74 -23 -80 -61 -22 -35 54 -28 90 9 44 l24 -30 0 33
c0 22 5 32 15 32 13 0 15 -11 13 -57z m-185 -27 c18 -66 14 -98 -11 -82 -13 8
-45 125 -38 143 12 29 30 6 49 -61z m-73 40 c0 -7 -9 -16 -21 -19 -27 -7 -19
-33 9 -29 25 4 29 -16 6 -32 -12 -9 -13 -17 -5 -38 11 -29 6 -38 -19 -38 -13
0 -22 17 -35 62 -9 34 -19 67 -22 74 -2 7 8 17 24 22 40 15 63 14 63 -2z m165
-18 c25 -61 23 -71 -14 -80 -44 -12 -69 8 -52 41 7 11 16 21 21 21 6 0 10 5
10 11 0 6 -9 8 -20 4 -14 -4 -20 -2 -20 8 0 20 10 27 37 27 18 0 28 -9 38 -32z
m-319 -113 c7 -19 14 -44 14 -55 0 -34 -33 -20 -44 18 -5 17 -13 32 -19 32 -9
0 -8 -8 9 -67 5 -18 2 -23 -14 -23 -15 0 -24 12 -36 47 -17 50 -17 50 16 69
40 21 58 16 74 -21z m756 -56 c23 -93 23 -99 -10 -99 -55 0 -90 72 -53 109 12
12 21 30 21 42 0 42 25 11 42 -52z m-206 -11 c23 -88 23 -93 5 -93 -15 0 -64
142 -55 157 16 25 33 2 50 -64z m-756 11 l15 -51 23 32 c22 29 22 31 4 21 -16
-8 -21 -7 -26 4 -8 22 46 48 66 32 13 -11 44 -86 36 -90 -1 -1 -13 -8 -25 -14
-13 -7 -30 -13 -39 -13 -8 0 -22 -7 -30 -15 -28 -28 -41 -17 -55 45 -7 33 -17
60 -21 60 -12 0 -10 -11 11 -71 l19 -55 -30 -17 c-35 -20 -59 -22 -77 -4 -11
10 -12 8 -7 -10 6 -18 -1 -25 -44 -47 -36 -18 -52 -22 -55 -13 -2 6 -8 27 -14
46 -16 51 -14 71 8 71 11 0 23 5 26 10 9 14 55 12 55 -2 0 -7 9 2 20 20 11 17
25 32 31 32 6 0 8 8 4 19 -6 20 18 46 35 36 5 -3 13 1 16 9 13 34 39 17 54
-35z m674 39 c15 -48 16 -68 2 -68 -15 0 -39 57 -30 71 8 13 24 11 28 -3z
m-44 -50 c6 -24 15 -56 20 -72 6 -16 10 -30 10 -32 0 -2 -16 -6 -36 -10 -26
-5 -40 -2 -52 9 -20 21 -20 77 1 92 10 7 17 22 17 34 0 38 29 23 40 -21z m228
15 c6 -10 13 -38 17 -62 6 -34 4 -42 -6 -39 -8 3 -18 21 -24 40 -16 56 -28 59
-21 6 6 -38 4 -48 -7 -48 -9 0 -19 18 -26 44 -15 60 -14 64 12 69 41 8 46 7
55 -10z m182 -3 c26 -26 26 -50 -1 -50 -18 0 -19 -2 -9 -15 7 -8 19 -15 27
-15 16 0 13 -22 -3 -27 -6 -2 -22 6 -37 17 -30 24 -44 74 -27 95 16 20 26 19
50 -5z m-1282 -30 c10 -17 10 -20 -3 -20 -8 0 -15 2 -15 4 0 2 -3 11 -6 20 -9
23 9 20 24 -4z m717 -29 c3 -5 0 -13 -6 -16 -7 -5 -3 -15 11 -30 18 -19 20
-27 10 -45 -7 -13 -19 -20 -32 -18 -27 4 -36 28 -11 29 16 0 15 2 -4 16 -13 8
-23 23 -23 32 0 31 40 55 55 32z m-755 -32 c0 -11 7 -46 16 -76 13 -46 14 -57
3 -64 -27 -17 -35 -8 -57 59 -27 83 -27 89 -4 95 34 9 42 7 42 -14z m690 -9
c12 -23 6 -40 -16 -40 -8 0 -14 -5 -14 -11 0 -7 9 -9 21 -6 15 4 19 1 17 -11
-2 -10 -15 -18 -30 -20 -44 -5 -77 65 -46 96 19 19 56 14 68 -8z m-87 -52 c9
-29 13 -56 8 -61 -4 -4 -24 -10 -43 -13 -35 -6 -36 -5 -52 42 -13 38 -13 49
-4 56 22 13 28 9 35 -22 3 -17 10 -33 14 -36 12 -7 11 9 -1 42 -8 21 -8 29 2
36 21 13 23 10 41 -44z m-217 -8 c1 -8 5 -26 11 -39 l10 -25 7 27 c7 28 47 62
67 55 13 -4 50 -128 43 -140 -8 -13 -32 -9 -38 7 -3 8 -12 12 -21 9 -9 -4 -24
1 -35 11 -18 17 -19 16 -17 -11 2 -23 -2 -29 -18 -29 -11 0 -28 -8 -37 -17
-18 -18 -48 -15 -48 6 0 6 -7 24 -15 39 -12 23 -12 33 -2 52 10 18 16 21 35
14 23 -9 29 -24 13 -33 -13 -9 -1 -46 15 -46 18 0 18 17 -1 71 -9 24 -13 49
-10 57 7 18 40 11 41 -8z m-508 -32 c2 -9 -6 -18 -18 -21 -12 -3 -20 -13 -20
-27 0 -20 4 -22 30 -16 21 4 30 2 30 -7 0 -21 -22 -37 -50 -37 -35 0 -50 17
-50 56 0 51 69 97 78 52z m-92 -58 c21 -69 21 -71 3 -81 -21 -11 -32 6 -44 75
-4 20 -11 39 -16 41 -13 9 2 35 20 35 11 0 22 -21 37 -70z m308 14 c4 -9 4
-19 2 -21 -8 -8 -26 8 -26 23 0 19 16 18 24 -2z m-364 -19 c0 -7 -4 -15 -10
-17 -5 -1 -7 -13 -3 -26 3 -15 11 -21 20 -18 10 4 13 0 11 -17 -2 -16 -10 -22
-27 -22 -19 0 -28 9 -42 41 -15 37 -15 45 -3 62 15 22 54 20 54 -3z m548 -2
c6 -10 13 -32 16 -49 7 -29 4 -33 -34 -53 -22 -11 -42 -21 -44 -21 -4 0 -29
87 -30 103 -1 10 44 35 66 36 10 1 21 -7 26 -16z m-614 -70 c13 -37 13 -48 4
-55 -20 -12 -31 -4 -40 30 -5 18 -13 32 -17 32 -6 0 -5 -15 0 -35 11 -37 6
-55 -15 -55 -10 0 -36 71 -36 100 0 13 36 28 67 29 17 1 25 -9 37 -46z m510
31 c21 -20 20 -40 -1 -54 -15 -9 -15 -10 5 -5 20 6 23 4 20 -16 -5 -35 -51
-48 -79 -23 -22 19 -22 19 -10 -4 14 -27 7 -42 -20 -42 -14 0 -21 9 -25 30 -4
17 -10 30 -15 30 -5 0 -4 -12 1 -26 16 -40 12 -54 -14 -54 -13 0 -26 -7 -30
-15 -3 -8 -15 -15 -26 -15 -19 0 -26 10 -45 65 -4 11 -9 15 -12 8 -2 -6 3 -27
11 -46 17 -41 9 -53 -41 -63 -35 -7 -48 6 -58 57 -6 34 -4 38 26 53 17 9 40
16 49 16 10 0 20 10 23 21 5 17 11 20 32 17 23 -5 26 -3 21 15 -6 23 9 47 30
47 8 0 14 -7 14 -15 0 -11 7 -14 24 -9 17 4 27 0 35 -13 10 -17 10 -16 11 4 0
12 10 29 22 37 28 20 33 20 52 0z m-794 -43 c0 -15 6 -19 27 -18 29 2 50 -26
55 -74 5 -38 -31 -38 -38 0 -7 33 -24 53 -24 27 0 -8 4 -26 10 -40 5 -14 8
-26 6 -26 -3 0 -11 -3 -20 -6 -11 -4 -20 10 -36 65 -12 38 -19 75 -15 81 11
17 35 11 35 -9z m162 2 c24 -22 23 -30 -9 -48 l-28 -16 28 4 c35 5 37 -19 2
-35 -19 -8 -28 -8 -41 3 -28 23 -36 59 -19 85 18 28 41 31 67 7z m-722 -75 c6
-24 15 -60 21 -81 11 -42 8 -53 -14 -44 -8 3 -22 37 -31 77 -20 88 -20 90 -1
90 8 0 18 -17 25 -42z m320 -38 c43 -60 48 -71 34 -77 -11 -4 -23 1 -35 15
-18 22 -58 30 -60 12 -1 -5 -2 -16 -3 -22 0 -7 -9 -14 -20 -16 -17 -4 -18 1
-11 60 9 74 21 112 34 103 5 -3 33 -37 61 -75z m189 71 c11 -7 12 -13 3 -23
-14 -18 -4 -58 14 -58 19 0 18 -27 -2 -34 -23 -9 -42 10 -54 54 -16 58 2 84
39 61z m-59 -72 c7 -27 11 -52 9 -53 -2 -2 -18 -7 -36 -10 -26 -6 -34 -3 -47
16 -9 13 -19 39 -22 57 -6 28 -4 33 11 29 11 -2 22 -16 27 -36 5 -17 13 -32
19 -32 11 0 8 26 -7 64 -4 11 0 16 14 16 16 0 23 -11 32 -51z m-319 -34 c10
-29 13 -54 8 -59 -13 -14 -26 2 -36 43 -5 19 -15 37 -23 39 -9 3 -11 -1 -7
-13 18 -46 19 -65 3 -65 -9 0 -19 15 -26 41 -6 22 -14 47 -17 55 -5 12 3 15
38 12 43 -3 44 -4 60 -53z m880 -11 c11 -26 18 -48 17 -49 -58 -47 -123 -19
-76 33 l23 25 -22 -6 c-25 -6 -31 11 -11 31 25 25 48 13 69 -34z m-156 -15 c4
-6 -1 -16 -11 -23 -17 -13 -17 -14 3 -20 12 -4 24 -13 27 -21 8 -21 -27 -60
-47 -52 -22 8 -22 27 -1 27 13 0 10 6 -10 25 -22 20 -25 28 -17 44 15 28 45
39 56 20z m-68 -56 c13 -20 12 -23 -14 -38 l-28 -16 28 4 c32 5 37 -17 8 -33
-36 -19 -71 12 -71 62 0 50 50 63 77 21z m-100 -15 c14 -23 32 -82 27 -90 -11
-18 -33 -6 -39 22 -4 16 -11 32 -16 35 -12 8 -11 -7 1 -41 8 -21 8 -29 -2 -35
-15 -10 -38 16 -38 42 0 10 -5 21 -12 25 -10 7 -10 -6 4 -66 2 -8 -4 -15 -13
-17 -12 -3 -19 8 -28 41 -16 63 -15 63 29 71 22 4 42 11 46 16 8 13 31 11 41
-3z m-159 -37 c37 -46 41 -80 12 -106 -42 -38 -97 24 -72 80 7 16 8 25 1 27
-14 5 0 38 15 38 7 0 27 -18 44 -39z m-428 -21 c0 -13 -5 -18 -15 -14 -10 4
-15 0 -15 -10 0 -9 12 -21 28 -27 26 -10 26 -11 8 -24 -25 -19 -14 -49 15 -40
17 6 20 3 17 -12 -2 -13 -12 -18 -37 -18 -33 0 -34 1 -52 70 -25 94 -25 95 16
95 28 0 35 -4 35 -20z m350 -9 c0 -6 -5 -13 -11 -16 -5 -4 -9 -23 -7 -43 2
-21 -1 -39 -7 -41 -12 -4 -48 86 -40 100 8 12 65 12 65 0z m-86 -23 c8 -13 17
-37 21 -55 5 -26 3 -32 -14 -38 -48 -15 -82 25 -46 55 19 16 20 34 1 27 -20
-8 -28 4 -15 20 17 19 37 16 53 -9z m-145 -16 c5 -10 12 -34 16 -55 6 -29 4
-37 -8 -37 -9 0 -17 13 -21 35 -11 54 -29 56 -21 1 5 -32 4 -46 -4 -46 -13 0
-27 31 -36 82 -6 34 -6 35 29 36 25 1 39 -4 45 -16z m31 -197 c0 -2 -19 -14
-42 -26 -46 -23 -46 -17 -1 12 29 18 43 23 43 14z"/>
<path d="M3575 4201 c-7 -13 12 -51 25 -51 6 0 10 8 10 19 0 23 -25 46 -35 32z"/>
<path d="M3816 3982 c-3 -6 -2 -22 4 -36 12 -32 34 -35 24 -3 -11 37 -21 51
-28 39z"/>
<path d="M2800 3913 c0 -12 5 -25 10 -28 13 -8 13 15 0 35 -8 12 -10 11 -10
-7z"/>
<path d="M2702 3839 c6 -16 12 -28 14 -26 5 5 -13 57 -20 57 -3 0 0 -14 6 -31z"/>
<path d="M3492 3926 c2 -16 9 -31 17 -34 10 -3 11 2 6 19 -12 39 -27 48 -23
15z"/>
<path d="M3910 3970 c0 -5 5 -10 10 -10 6 0 10 5 10 10 0 6 -4 10 -10 10 -5 0
-10 -4 -10 -10z"/>
<path d="M3070 3786 c0 -14 5 -26 10 -26 6 0 10 9 10 19 0 11 -4 23 -10 26 -6
4 -10 -5 -10 -19z"/>
<path d="M2861 3684 c0 -11 3 -14 6 -6 3 7 2 16 -1 19 -3 4 -6 -2 -5 -13z"/>
<path d="M2606 3591 c-5 -13 -4 -27 3 -34 17 -17 24 -1 14 30 l-10 28 -7 -24z"/>
<path d="M2491 3550 c0 -8 4 -24 9 -35 l9 -20 0 20 c0 11 -4 27 -9 35 -9 13
-10 13 -9 0z"/>
<path d="M1700 3540 c0 -5 5 -10 10 -10 6 0 10 5 10 10 0 6 -4 10 -10 10 -5 0
-10 -4 -10 -10z"/>
<path d="M1930 3327 c0 -7 6 -22 14 -33 14 -18 15 -18 21 -1 7 17 -10 47 -26
47 -5 0 -9 -6 -9 -13z"/>
<path d="M2990 5068 c0 -14 16 -15 55 -3 l40 12 -47 -1 c-27 -1 -48 -4 -48 -8z"/>
<path d="M3485 5055 c-39 -14 -40 -14 -5 -8 41 7 82 22 60 22 -8 0 -33 -7 -55
-14z"/>
<path d="M171 4994 c-1 -27 23 -59 37 -50 17 10 15 26 -3 26 -9 0 -20 10 -25
23 -8 21 -9 21 -9 1z"/>
<path d="M3553 4951 c-128 -39 -153 -53 -153 -80 0 -36 33 -113 54 -126 20
-13 35 -11 152 21 136 38 162 50 145 67 -7 7 -14 7 -23 0 -21 -17 -155 -54
-171 -47 -17 6 -30 31 -23 43 3 4 50 20 106 36 91 26 100 30 94 49 -7 26 -37
69 -50 72 -5 1 -64 -14 -131 -35z m51 -27 c26 -26 18 -41 -28 -54 -51 -14 -66
-8 -66 24 0 17 8 26 33 34 44 14 44 14 61 -4z"/>
<path d="M3132 4916 c-42 -20 -43 -22 -37 -58 5 -30 3 -39 -9 -44 -24 -9 -19
-22 10 -26 22 -2 30 -13 48 -62 30 -81 43 -85 153 -51 95 29 109 37 98 55 -5
8 -12 7 -23 -4 -10 -8 -34 -17 -54 -21 -37 -7 -38 -7 -58 41 -34 78 -32 86 23
101 28 9 47 20 47 29 0 17 0 17 -43 -1 -55 -23 -67 -19 -84 25 -9 22 -19 39
-22 38 -3 0 -25 -10 -49 -22z"/>
<path d="M200 4892 c0 -16 6 -36 13 -46 9 -12 12 -36 9 -66 -2 -26 0 -50 6
-54 5 -3 8 -27 6 -53 l-3 -48 10 45 c8 32 8 49 0 62 -7 11 -9 35 -5 58 5 28 2
47 -10 64 -21 33 -20 39 5 31 18 -6 19 -5 7 14 -18 30 -38 26 -38 -7z"/>
<path d="M2973 4781 c-23 -9 -44 -19 -48 -22 -3 -4 5 -36 19 -73 28 -72 23
-89 -30 -102 -40 -10 -51 6 -99 145 -4 9 -9 10 -18 3 -6 -5 -29 -15 -49 -21
-21 -7 -38 -16 -38 -20 0 -15 43 -136 53 -148 5 -7 19 -13 31 -13 20 0 131 32
171 49 11 4 42 14 70 20 27 7 51 14 53 15 5 6 -60 186 -67 185 -3 -1 -25 -9
-48 -18z"/>
<path d="M3775 4682 c-6 -5 -53 -21 -105 -37 -157 -46 -174 -62 -146 -129 18
-43 28 -44 138 -14 60 16 81 19 90 10 19 -19 0 -29 -102 -55 -52 -14 -96 -30
-98 -36 -6 -17 13 -14 151 26 168 48 190 70 147 141 -23 37 -37 39 -115 12
-63 -22 -115 -26 -115 -9 0 13 44 31 132 54 55 15 66 21 57 31 -13 16 -21 17
-34 6z"/>
<path d="M2510 4640 c-47 -16 -92 -29 -100 -29 -8 -1 -33 -8 -56 -17 l-42 -16
26 -67 c14 -36 25 -76 25 -88 -1 -13 1 -23 4 -23 6 0 117 32 120 34 1 1 -9 29
-22 62 -34 83 -33 100 10 114 19 6 40 8 46 4 15 -9 59 -109 59 -133 0 -18 3
-18 48 -5 26 8 53 16 60 19 17 6 -31 134 -59 158 -26 21 -16 22 -119 -13z"/>
<path d="M2190 4631 c0 -6 -18 -15 -39 -21 -35 -9 -57 -30 -45 -43 2 -2 29 3
60 11 45 13 54 19 52 35 -3 21 -28 37 -28 18z"/>
<path d="M1280 4590 c19 -13 30 -13 30 0 0 6 -10 10 -22 10 -19 0 -20 -2 -8
-10z"/>
<path d="M894 4566 c-111 -41 -246 -127 -309 -197 -18 -19 -7 -13 27 17 75 65
205 142 298 176 41 15 68 27 60 27 -8 0 -42 -10 -76 -23z"/>
<path d="M1950 4554 c-72 -25 -77 -33 -79 -122 -1 -71 -18 -75 -72 -17 -24 25
-48 53 -54 61 -9 13 -19 13 -80 -7 -84 -27 -90 -31 -76 -55 17 -30 71 -186 71
-206 0 -21 1 -21 34 -8 24 9 25 11 11 37 -26 49 -65 157 -59 163 4 3 43 -34
88 -82 l81 -86 41 14 42 15 7 110 c5 74 11 109 19 106 6 -2 24 -44 41 -93 16
-49 31 -90 31 -92 1 -1 29 5 63 14 34 10 60 20 59 23 -2 4 -23 61 -48 128 -25
68 -47 122 -50 121 -3 0 -34 -11 -70 -24z"/>
<path d="M2215 4560 c-3 -5 -24 -14 -45 -20 -22 -6 -40 -14 -40 -18 0 -5 11
-37 25 -72 14 -35 25 -72 25 -82 0 -22 7 -22 76 -2 39 11 52 19 46 27 -5 7
-22 49 -38 95 -28 80 -36 92 -49 72z"/>
<path d="M3380 4560 c-14 -5 -74 -23 -134 -41 -135 -41 -146 -53 -121 -131 20
-59 40 -88 64 -88 8 0 80 19 158 42 117 34 143 45 143 60 0 21 -8 23 -29 5 -9
-8 -49 -23 -90 -35 -76 -22 -102 -19 -115 13 -6 18 1 21 119 55 44 13 84 27
89 31 19 17 -30 105 -56 98 -2 0 -14 -4 -28 -9z m-41 -69 c12 -22 2 -33 -47
-49 -44 -15 -64 -6 -60 26 2 18 11 28 28 33 45 12 69 9 79 -10z"/>
<path d="M4790 4539 l-23 -31 22 11 c22 12 38 38 28 47 -3 3 -15 -9 -27 -27z"/>
<path d="M2976 4523 c-4 -5 -24 -13 -44 -19 -27 -7 -37 -15 -36 -30 1 -13 62
-200 80 -241 1 -3 105 27 115 33 9 5 -85 257 -97 261 -6 2 -14 0 -18 -4z"/>
<path d="M1037 4480 c-82 -21 -189 -70 -263 -121 -49 -34 -51 -42 -30 -133 8
-33 12 -65 9 -73 -9 -24 7 -14 104 63 136 108 164 120 178 73 4 -12 -29 -125
-84 -289 l-91 -270 20 -40 c11 -21 20 -46 20 -55 0 -21 7 -20 96 21 111 50
293 112 404 136 52 11 98 23 102 27 5 5 -81 234 -93 246 -2 2 -57 -23 -122
-56 -108 -54 -147 -68 -147 -54 0 3 29 56 65 118 97 169 110 244 60 332 -53
92 -99 107 -228 75z"/>
<path d="M2796 4472 c-3 -5 -26 -15 -51 -22 -49 -14 -48 -10 -29 -77 5 -19 2
-23 -16 -23 -41 0 -156 -40 -175 -60 -18 -19 -18 -22 0 -81 27 -88 43 -96 142
-69 43 12 88 28 101 36 12 8 26 13 30 10 5 -3 32 2 61 11 42 12 51 18 45 31
-4 10 -25 67 -47 127 -42 115 -51 133 -61 117z m-41 -202 c21 -63 16 -76 -31
-89 -47 -13 -58 -5 -79 60 -20 61 -18 70 26 84 46 17 64 5 84 -55z"/>
<path d="M2315 4325 c-5 -2 -22 -6 -37 -9 -15 -4 -43 -22 -61 -40 -33 -33 -36
-33 -75 -23 -50 13 -114 -8 -157 -53 -36 -38 -47 -125 -21 -165 53 -81 175
-86 246 -10 19 20 28 22 80 18 51 -5 65 -2 103 20 71 42 98 128 62 197 -21 40
-103 78 -140 65z m93 -35 c106 -65 34 -239 -99 -240 -42 0 -97 33 -117 70 -16
30 -10 92 13 126 40 62 138 83 203 44z m-236 -56 c9 -6 -3 -78 -13 -82 -4 -2
-5 -10 -2 -18 3 -9 -8 -32 -26 -55 -18 -21 -27 -39 -22 -39 6 0 22 18 36 40
14 22 27 40 28 40 2 0 14 -14 26 -31 l23 -31 -24 -25 c-47 -51 -114 -65 -174
-37 -103 49 -76 206 41 243 27 9 89 6 107 -5z"/>
<path d="M2360 4192 c0 -10 -11 -29 -25 -42 -20 -19 -31 -22 -62 -17 -26 5
-33 3 -23 -3 8 -5 29 -10 47 -10 24 0 37 7 54 33 13 17 27 34 31 35 10 5 0 22
-13 22 -5 0 -9 -8 -9 -18z"/>
<path d="M2025 4060 c-3 -5 0 -10 9 -10 8 0 23 -3 33 -6 16 -6 16 -5 -2 9 -24
19 -32 21 -40 7z"/>
<path d="M581 4274 c0 -11 3 -14 6 -6 3 7 2 16 -1 19 -3 4 -6 -2 -5 -13z"/>
<path d="M1475 4266 c-46 -17 -61 -27 -63 -44 -4 -26 2 -27 84 -5 62 17 70 25
58 57 -7 19 -3 19 -79 -8z"/>
<path d="M591 4234 c0 -11 3 -14 6 -6 3 7 2 16 -1 19 -3 4 -6 -2 -5 -13z"/>
<path d="M631 4094 c0 -11 3 -14 6 -6 3 7 2 16 -1 19 -3 4 -6 -2 -5 -13z"/>
<path d="M1755 4074 c-38 -14 -79 -26 -90 -28 -31 -3 -105 -28 -105 -35 0 -3
13 -40 28 -81 16 -42 27 -81 24 -88 -5 -16 0 -15 70 4 47 14 58 20 53 33 -31
76 -47 131 -42 144 7 18 69 33 87 22 15 -9 51 -92 54 -125 2 -14 5 -25 7 -25
2 1 32 9 67 19 46 12 61 21 54 29 -5 7 -19 39 -31 72 -13 33 -27 65 -33 72
-16 19 -65 15 -143 -13z"/>
<path d="M752 3999 c-35 -21 -68 -36 -73 -33 -5 3 -9 -2 -9 -10 0 -22 3 -21
73 23 37 24 64 36 68 30 4 -6 9 -4 13 6 13 35 7 33 -72 -16z"/>
<path d="M183 3990 c21 -13 22 -30 2 -30 -17 0 -35 -30 -35 -60 0 -20 1 -20
30 -5 45 23 53 20 48 -22 -3 -21 -8 -45 -12 -54 -5 -12 -1 -18 14 -22 17 -4
21 -13 20 -49 -1 -60 10 -158 21 -188 10 -26 20 -120 23 -207 1 -38 5 -53 15
-53 21 0 7 343 -20 470 -22 111 -74 224 -104 228 -18 2 -19 2 -2 -8z"/>
<path d="M771 3899 c-11 -34 -19 -64 -17 -66 2 -2 13 24 25 58 11 34 19 64 17
66 -2 2 -13 -24 -25 -58z"/>
<path d="M151 3807 c1 -37 2 -39 9 -15 4 14 11 31 14 36 3 6 -1 12 -9 16 -12
4 -15 -3 -14 -37z"/>
<path d="M3467 3492 c-15 -9 -28 -26 -28 -37 -1 -11 -3 -35 -5 -52 -2 -28 0
-31 14 -24 32 17 94 89 88 100 -16 25 -41 29 -69 13z"/>
<path d="M4366 3477 c4 -17 6 -44 6 -58 -1 -23 7 -29 61 -50 42 -16 78 -40
113 -76 32 -30 65 -53 83 -57 17 -3 44 -9 61 -12 32 -6 130 -88 130 -108 0 -7
10 -21 21 -32 l22 -19 -7 93 c-4 51 -9 99 -13 107 -15 39 -226 155 -382 209
l-103 36 8 -33z"/>
<path d="M4640 3469 c30 -17 88 -53 128 -79 42 -28 72 -43 72 -35 0 13 -89 69
-187 119 -72 36 -80 32 -13 -5z"/>
<path d="M3673 3412 c-60 -75 -61 -79 -9 -34 27 23 55 42 62 42 19 0 18 26 -1
33 -9 4 -28 -11 -52 -41z"/>
<path d="M2748 3393 c-10 -2 -18 -14 -18 -25 0 -21 0 -21 25 2 34 32 33 34 -7
23z"/>
<path d="M266 3371 c-4 -7 -5 -15 -2 -18 9 -9 19 4 14 18 -4 11 -6 11 -12 0z"/>
<path d="M3861 3354 c-31 -39 -26 -47 14 -22 34 22 40 38 18 45 -6 2 -20 -8
-32 -23z"/>
<path d="M200 3294 c0 -43 24 -125 48 -161 14 -23 52 -32 52 -13 0 6 -8 10
-17 10 -14 0 -14 3 4 23 18 18 28 63 24 101 -1 4 -12 1 -26 -8 -32 -21 -45
-20 -45 4 0 11 -9 34 -20 52 l-20 33 0 -41z"/>
<path d="M3554 3289 c-49 -38 -49 -39 -38 -39 10 1 92 70 83 70 -3 0 -24 -14
-45 -31z"/>
<path d="M4036 3284 c-9 -23 -2 -28 29 -20 30 8 29 29 -2 34 -12 2 -23 -4 -27
-14z"/>
<path d="M2593 3278 c-5 -7 -14 -25 -20 -39 -11 -26 -10 -27 26 -33 21 -3 50
-15 64 -27 34 -26 35 -11 7 54 -24 54 -56 72 -77 45z"/>
<path d="M2881 3246 l-23 -25 33 -14 c25 -10 40 -11 57 -4 30 14 28 31 -5 48
-16 7 -31 15 -34 16 -3 2 -16 -8 -28 -21z"/>
<path d="M2848 3253 c7 -3 16 -2 19 1 4 3 -2 6 -13 5 -11 0 -14 -3 -6 -6z"/>
<path d="M3723 3215 c-15 -13 -23 -25 -17 -25 6 0 21 11 34 25 30 32 19 32
-17 0z"/>
<path d="M3974 3208 c-16 -18 -22 -27 -13 -20 9 7 23 10 31 7 11 -5 16 1 16
19 0 14 -1 26 -2 26 -1 0 -15 -14 -32 -32z"/>
<path d="M4675 3130 c10 -11 26 -20 37 -20 16 0 16 3 6 20 -7 11 -24 20 -37
20 -23 0 -24 -1 -6 -20z"/>
<path d="M4193 3133 c-13 -5 -7 -60 8 -77 4 -5 23 -2 42 8 19 9 46 17 59 17
20 1 21 2 3 6 -11 3 -31 13 -45 23 -32 21 -52 28 -67 23z"/>
<path d="M2714 3065 c-6 -19 -22 -37 -44 -48 -33 -18 -27 -18 28 -1 13 4 22 2
22 -4 0 -18 -38 -33 -73 -30 -25 2 -32 8 -33 24 -2 30 -12 44 -32 44 -18 -1
-59 -27 -51 -34 9 -8 141 -66 162 -71 24 -6 97 46 97 70 0 7 -15 28 -34 47
l-33 33 -9 -30z"/>
<path d="M2436 3075 c-3 -8 -1 -15 4 -15 6 0 10 7 10 15 0 8 -2 15 -4 15 -2 0
-6 -7 -10 -15z"/>
<path d="M4785 3080 c-3 -5 -22 -10 -42 -10 -25 0 -42 -7 -58 -24 -13 -14 -42
-30 -66 -36 -37 -10 -40 -13 -25 -22 19 -11 46 -1 98 36 28 20 90 18 111 -3
19 -19 1 -21 -43 -6 -41 14 -44 14 -58 -6 -7 -11 -26 -25 -41 -30 l-26 -11 30
-13 c17 -7 46 -25 65 -39 34 -26 45 -27 129 -10 22 5 23 8 18 55 -4 36 -15 60
-39 89 -35 42 -43 46 -53 30z"/>
<path d="M4358 3044 c7 -37 -25 -89 -61 -100 -17 -5 -32 -14 -34 -20 -7 -22
28 -23 82 -2 43 16 54 25 50 38 -6 18 33 43 80 52 14 3 2 10 -35 22 -30 10
-59 22 -64 27 -17 16 -23 10 -18 -17z"/>
<path d="M3635 3050 c3 -5 8 -10 11 -10 2 0 4 5 4 10 0 6 -5 10 -11 10 -5 0
-7 -4 -4 -10z"/>
<path d="M3276 3038 c-9 -5 -24 -8 -34 -7 -36 3 -41 -1 -40 -37 1 -30 7 -40
32 -55 17 -10 37 -31 44 -48 7 -16 33 -44 57 -63 24 -18 48 -42 54 -53 6 -13
10 -15 10 -6 1 8 -11 27 -25 42 -25 26 -25 28 -8 37 15 7 130 19 207 22 22 0
-10 21 -47 31 -34 8 -43 15 -39 29 7 27 -43 33 -92 10 -62 -29 -90 -33 -104
-16 -11 13 -5 19 36 39 26 13 65 27 86 31 55 10 48 30 -8 23 -25 -4 -45 -3
-45 1 0 13 -68 29 -84 20z"/>
<path d="M3753 3023 c-16 -6 -17 -39 -2 -49 8 -4 7 -9 -2 -15 -21 -13 -3 -22
20 -10 17 10 23 8 33 -9 22 -34 27 -22 11 25 -15 45 -37 66 -60 58z"/>
<path d="M4190 3020 c-8 -5 -12 -11 -10 -14 3 -2 14 2 24 10 22 15 10 19 -14
4z"/>
<path d="M2097 2992 c-20 -22 -22 -33 -4 -26 15 6 40 44 29 44 -5 0 -16 -8
-25 -18z"/>
<path d="M3053 2983 c-9 -3 -8 -11 3 -29 19 -29 34 -31 34 -5 0 22 -20 40 -37
34z"/>
<path d="M1795 2940 c-14 -16 -15 -22 -5 -35 8 -10 9 -15 1 -15 -19 0 -12 -26
15 -51 25 -24 26 -24 40 -5 8 11 14 23 14 27 0 4 9 11 20 14 16 5 18 10 10 23
-33 57 -68 72 -95 42z"/>
<path d="M2155 2937 c-12 -16 -18 -19 -24 -9 -12 20 -82 1 -92 -25 -7 -20 -6
-20 18 -8 22 12 32 12 61 -1 45 -18 59 -18 65 4 2 9 8 24 11 33 11 27 -21 31
-39 6z"/>
<path d="M3550 2939 c0 -5 5 -7 10 -4 6 3 10 8 10 11 0 2 -4 4 -10 4 -5 0 -10
-5 -10 -11z"/>
<path d="M2490 2927 c0 -3 4 -17 10 -31 9 -26 11 -26 95 -24 70 3 85 6 85 19
0 13 -15 18 -67 23 -38 3 -80 9 -95 12 -16 4 -28 4 -28 1z"/>
<path d="M2845 2895 c-16 -7 -39 -17 -50 -20 -19 -7 -19 -7 3 -18 17 -8 26 -6
40 6 10 9 23 13 30 8 15 -9 -60 -60 -135 -92 -26 -12 -58 -30 -69 -41 -12 -11
-28 -18 -36 -16 -7 2 -15 -1 -18 -7 -9 -23 34 -13 130 29 56 25 108 42 116 39
17 -6 74 15 74 28 0 5 -5 9 -12 9 -6 0 -3 7 8 15 23 18 34 19 34 4 0 -7 8 -18
18 -25 16 -13 15 -15 -8 -34 -45 -37 -184 -104 -221 -106 -20 -1 -49 -9 -65
-17 -16 -8 -62 -22 -102 -31 -70 -16 -74 -16 -112 4 -22 11 -46 32 -54 48
l-15 27 -1 -32 c0 -17 7 -39 15 -47 9 -8 26 -34 39 -57 24 -41 24 -41 39 -19
14 21 21 22 79 16 57 -5 68 -3 113 21 32 18 51 36 53 49 2 16 8 20 21 17 21
-5 92 17 153 48 26 13 51 19 68 15 15 -2 48 1 73 9 56 17 70 5 21 -18 -19 -10
-32 -21 -29 -27 7 -11 -126 -80 -155 -80 -12 0 -18 -4 -15 -10 12 -19 58 -10
158 30 105 42 183 56 191 33 6 -14 36 -18 36 -5 0 23 -23 82 -38 99 -9 11 -41
41 -71 67 -45 40 -58 47 -83 42 -20 -4 -30 -1 -35 9 -4 12 -9 13 -19 4 -10 -8
-24 -5 -58 15 -50 29 -67 31 -111 11z"/>
<path d="M2367 2883 c-4 -3 -7 -21 -7 -40 l0 -34 30 16 c35 18 37 26 12 48
-20 19 -26 20 -35 10z"/>
<path d="M4860 2881 c-10 -4 -16 -21 -17 -48 -1 -36 1 -43 17 -43 23 0 34 33
23 71 -6 18 -13 24 -23 20z"/>
<path d="M4486 2857 c-15 -11 -14 -15 15 -45 31 -32 31 -32 9 -40 l-23 -8 29
-23 c16 -12 41 -25 56 -28 16 -3 31 -10 34 -14 10 -17 34 -9 39 14 7 25 -38
80 -106 130 -30 21 -39 24 -53 14z"/>
<path d="M1630 2829 c0 -5 5 -7 10 -4 6 3 10 8 10 11 0 2 -4 4 -10 4 -5 0 -10
-5 -10 -11z"/>
<path d="M2009 2813 c-5 -16 -30 -47 -55 -71 -48 -47 -51 -54 -29 -72 28 -23
82 -3 116 43 28 39 29 42 10 48 -29 11 -36 30 -17 45 10 7 15 17 11 23 -11 19
-25 12 -36 -16z"/>
<path d="M4170 2827 c0 -16 20 -27 51 -27 24 0 25 16 2 23 -10 2 -26 8 -35 12
-13 5 -18 3 -18 -8z"/>
<path d="M3510 2805 c0 -4 7 -13 15 -21 8 -8 19 -33 25 -54 11 -41 26 -51 36
-26 8 20 -20 70 -50 90 -15 9 -26 14 -26 11z"/>
<path d="M2526 2779 c-14 -11 -26 -27 -26 -35 0 -15 35 -20 44 -5 3 4 26 14
51 21 47 13 56 24 29 34 -31 12 -72 6 -98 -15z"/>
<path d="M1640 2755 c0 -18 31 -35 64 -35 34 0 41 16 14 34 -29 20 -78 21 -78
1z"/>
<path d="M4850 2739 c0 -43 -17 -69 -45 -69 -18 0 -26 7 -31 25 -5 20 -9 23
-20 14 -23 -19 -16 -51 18 -86 24 -25 31 -41 30 -67 -1 -27 5 -40 26 -57 17
-13 22 -23 15 -26 -10 -3 -10 -9 0 -24 16 -26 2 -47 -59 -83 -42 -25 -63 -30
-150 -36 -112 -8 -141 -21 -168 -77 -9 -18 -20 -33 -26 -33 -5 0 -10 -9 -10
-20 0 -26 -4 -25 -57 6 -25 14 -46 24 -48 22 -2 -1 -6 -20 -10 -40 -6 -33 -5
-38 12 -38 21 0 66 -29 46 -30 -21 0 -15 -27 11 -48 14 -10 45 -26 70 -36 l44
-17 84 52 c46 28 106 67 135 85 28 19 55 34 59 34 17 0 -55 -65 -136 -123 -47
-33 -87 -62 -89 -64 -3 -2 1 -9 7 -15 7 -7 12 -23 12 -36 0 -18 -9 -27 -39
-39 -40 -16 -65 -51 -55 -78 11 -28 60 -45 131 -45 154 0 203 -51 132 -139
-30 -38 -31 -39 -61 -24 -26 13 -29 20 -24 44 4 22 2 29 -10 29 -11 0 -14 5
-9 18 19 45 18 52 -6 52 -13 0 -29 -4 -35 -8 -15 -9 -44 -67 -44 -86 0 -28
-21 -27 -69 3 -71 46 -74 43 -55 -48 l5 -24 24 23 c43 41 102 0 74 -52 -13
-24 -30 -23 -36 3 -8 30 -23 3 -23 -43 0 -86 64 -37 75 57 8 62 24 85 60 85
45 0 44 -67 0 -105 -17 -14 -22 -24 -15 -35 7 -12 12 -12 28 4 11 9 26 31 32
47 16 37 35 38 25 2 -13 -54 -75 -104 -102 -82 -12 11 -17 10 -28 -4 -6 -9
-27 -24 -46 -32 -33 -16 -34 -16 -4 -10 17 4 38 14 47 22 10 9 25 13 34 9 10
-4 37 4 65 19 27 14 62 25 77 25 33 0 78 -31 87 -60 4 -11 10 -20 14 -20 11 0
13 83 3 110 -7 19 -4 33 14 60 33 51 42 162 39 470 -2 146 0 342 5 435 4 94 5
185 2 203 -6 42 -32 43 -32 1z m-220 -494 c0 -10 -10 -15 -27 -15 -26 0 -26 1
-7 15 25 19 34 19 34 0z m-20 -40 c20 -24 2 -35 -59 -35 -64 0 -108 21 -81 40
24 16 126 12 140 -5z m20 -455 c0 -19 -32 -60 -46 -60 -17 0 -17 5 -3 33 18
33 49 50 49 27z m-110 -215 c-7 -8 -16 -15 -21 -15 -5 0 -6 7 -3 15 4 8 13 15
21 15 13 0 13 -3 3 -15z"/>
<path d="M1393 2753 c-25 -5 -30 -22 -11 -41 19 -19 34 -14 46 13 18 39 18 38
-35 28z"/>
<path d="M4060 2751 c0 -5 5 -13 10 -16 6 -3 10 -2 10 4 0 5 -4 13 -10 16 -5
3 -10 2 -10 -4z"/>
<path d="M4296 2747 c-17 -13 -13 -47 6 -47 5 0 18 -20 29 -45 15 -35 17 -49
9 -65 -10 -18 -8 -20 27 -20 42 0 76 19 94 51 14 27 -13 69 -44 69 -34 0 -66
26 -60 50 4 16 0 20 -19 20 -13 0 -32 -6 -42 -13z m134 -87 c0 -5 -4 -10 -9
-10 -6 0 -13 5 -16 10 -3 6 1 10 9 10 9 0 16 -4 16 -10z"/>
<path d="M2156 2708 c-24 -34 -19 -44 9 -18 14 13 25 27 25 32 0 16 -19 8 -34
-14z"/>
<path d="M4080 2705 c0 -9 5 -15 11 -13 6 2 11 8 11 13 0 5 -5 11 -11 13 -6 2
-11 -4 -11 -13z"/>
<path d="M2960 2700 c0 -5 5 -10 10 -10 6 0 10 5 10 10 0 6 -4 10 -10 10 -5 0
-10 -4 -10 -10z"/>
<path d="M3450 2655 c-8 -9 -8 -15 -2 -15 12 0 26 19 19 26 -2 2 -10 -2 -17
-11z"/>
<path d="M1796 2651 c-12 -19 63 -64 85 -50 11 7 8 13 -16 34 -31 25 -60 32
-69 16z"/>
<path d="M3256 2594 c-10 -25 -7 -34 9 -34 9 0 15 9 15 25 0 28 -15 34 -24 9z"/>
<path d="M2306 2570 c5 -23 2 -31 -12 -36 -11 -3 -27 -10 -36 -15 -10 -5 -25
-9 -33 -9 -26 0 -17 -17 31 -57 l46 -37 24 29 c13 17 24 42 24 57 0 15 5 30
10 33 15 9 12 25 -5 25 -8 0 -20 9 -27 20 -18 29 -28 24 -22 -10z"/>
<path d="M3563 2592 c-27 -4 -28 -6 -7 -37 12 -18 13 -29 6 -38 -7 -8 -5 -19
10 -37 18 -23 21 -23 33 -7 7 9 16 17 20 17 12 0 65 41 65 50 0 5 -23 12 -51
16 -36 5 -49 10 -45 20 6 17 -2 21 -31 16z"/>
<path d="M4670 2560 c-11 -7 -9 -11 13 -19 35 -14 87 -14 87 -1 0 5 -12 12
-27 16 -16 3 -35 8 -43 10 -8 2 -22 -1 -30 -6z"/>
<path d="M1988 2500 c-2 -42 0 -49 12 -44 34 14 51 16 63 5 19 -15 28 -3 16
23 -8 17 -43 45 -81 64 -3 2 -8 -20 -10 -48z"/>
<path d="M4533 2511 c-14 -22 -2 -31 29 -23 14 3 15 8 7 23 -12 24 -21 24 -36
0z"/>
<path d="M2745 2510 c-26 -10 -52 -40 -36 -40 22 0 81 29 81 39 0 13 -17 13
-45 1z"/>
<path d="M3186 2504 c-9 -24 -7 -54 4 -54 6 0 10 16 10 35 0 38 -4 44 -14 19z"/>
<path d="M922 2478 c-41 -68 -57 -138 -57 -248 0 -85 4 -116 23 -166 32 -85
114 -188 201 -255 100 -77 120 -87 131 -69 14 22 12 28 -10 35 -11 3 -20 12
-20 20 0 7 -24 28 -52 46 -29 18 -64 42 -77 53 -17 15 -25 18 -28 8 -4 -10 -8
-10 -19 -1 -8 6 -14 17 -14 23 0 6 5 4 10 -4 15 -23 30 6 30 61 0 55 8 66 83
113 61 38 77 43 77 24 0 -9 3 -9 12 0 9 9 8 15 -6 25 -15 11 -17 21 -12 50 6
33 5 37 -13 37 -11 0 -25 -6 -30 -12 -6 -7 -23 -28 -37 -46 -14 -18 -35 -37
-45 -43 -24 -12 -49 0 -26 12 8 5 18 28 22 52 12 79 17 97 25 92 18 -11 26 91
14 166 -5 28 -10 35 -23 32 -9 -2 -30 3 -46 11 -51 27 -90 21 -113 -16z"/>
<path d="M2885 2485 c-16 -14 -54 -34 -84 -45 -44 -17 -59 -19 -87 -10 -28 10
-41 8 -81 -11 l-48 -21 30 -14 c17 -7 39 -10 50 -7 19 5 19 5 3 -14 -20 -21
-24 -68 -8 -78 11 -7 40 18 55 49 14 27 57 37 90 20 25 -13 29 -12 68 21 22
19 45 35 51 35 6 1 28 9 50 19 38 18 38 18 12 25 -15 4 -35 2 -46 -4 -11 -6
-25 -8 -30 -5 -17 11 -11 37 10 42 11 3 17 9 14 14 -8 13 -16 11 -49 -16z"/>
<path d="M3996 2497 c3 -10 9 -15 12 -12 3 3 0 11 -7 18 -10 9 -11 8 -5 -6z"/>
<path d="M4700 2499 c0 -5 5 -7 10 -4 6 3 10 8 10 11 0 2 -4 4 -10 4 -5 0 -10
-5 -10 -11z"/>
<path d="M1766 2468 c-14 -33 -11 -62 5 -52 10 6 7 -25 -4 -43 -5 -7 -5 -17
-2 -23 3 -5 1 -10 -5 -10 -14 0 -45 -29 -33 -31 4 -1 16 -1 26 0 29 4 19 -16
-13 -22 -16 -4 -30 -11 -30 -17 0 -15 36 -12 49 4 6 7 32 19 57 26 24 7 49 21
54 31 13 24 13 32 -2 23 -15 -10 -68 -13 -68 -5 0 4 7 16 15 27 8 10 15 25 15
33 0 8 7 22 15 31 14 15 13 19 -5 35 -20 18 -20 18 -20 -18 0 -40 -10 -46 -34
-21 -15 14 -14 17 5 33 20 16 20 18 5 24 -13 5 -20 -1 -30 -25z"/>
<path d="M4252 2465 c10 -23 13 -24 21 -9 6 11 5 19 -4 25 -24 15 -29 10 -17
-16z"/>
<path d="M1474 2448 c-19 -21 -19 -21 1 -13 11 4 30 10 42 12 13 3 20 9 17 14
-10 16 -40 9 -60 -13z"/>
<path d="M4670 2445 c48 -52 106 -65 148 -32 28 22 11 34 -55 41 -38 4 -79 10
-93 13 l-25 6 25 -28z"/>
<path d="M3388 2430 c-14 -25 -22 -29 -42 -24 -22 5 -24 3 -19 -16 5 -19 11
-21 42 -17 28 3 82 20 109 33 1 1 -3 13 -9 28 -17 38 -59 36 -81 -4z"/>
<path d="M3726 2447 c-16 -12 -14 -14 20 -30 43 -21 49 -18 33 17 -14 29 -27
32 -53 13z"/>
<path d="M3900 2416 c0 -32 40 -61 70 -51 19 6 21 4 15 -15 -5 -15 0 -29 16
-46 38 -41 74 -24 45 21 -9 13 -16 32 -16 42 0 16 -36 37 -122 71 -4 2 -8 -8
-8 -22z"/>
<path d="M3161 2411 c-18 -10 -39 -31 -46 -47 l-12 -29 61 0 c61 0 94 -17 44
-23 -41 -5 -83 -65 -117 -168 -39 -120 -102 -182 -151 -151 -23 14 -25 28 -8
45 20 20 2 23 -29 6 -29 -17 -31 -17 -61 4 -17 12 -40 38 -51 56 -12 19 -32
41 -46 50 -24 16 -24 16 -19 -13 4 -17 1 -54 -6 -83 l-13 -52 -36 40 c-36 41
-78 66 -69 42 30 -80 31 -88 20 -113 -16 -34 6 -34 56 0 33 23 37 23 54 9 13
-12 15 -21 8 -35 -6 -10 -10 -20 -10 -22 0 -9 103 -20 164 -19 94 3 212 68
221 121 2 12 11 15 35 13 l32 -2 -2 57 c-3 76 -3 78 15 63 11 -9 13 -16 5 -24
-5 -5 -10 -14 -10 -18 0 -13 79 46 80 60 0 7 11 17 25 22 16 6 25 17 25 30 0
16 5 20 18 16 9 -3 24 -1 32 4 12 8 9 10 -11 10 -27 0 -59 27 -59 51 0 8 -14
22 -30 31 -17 10 -37 33 -46 53 -16 40 -17 40 -63 16z"/>
<path d="M4497 2413 c-4 -3 -7 -17 -7 -31 0 -19 4 -23 18 -17 9 4 30 12 47 18
l30 11 -30 12 c-34 15 -49 17 -58 7z"/>
<path d="M1861 2401 c-9 -6 -7 -10 8 -14 12 -3 21 -1 21 3 0 14 -15 19 -29 11z"/>
<path d="M2140 2369 c-14 -19 -20 -39 -17 -55 3 -16 -1 -28 -9 -31 -10 -3 -11
-10 -4 -23 5 -9 6 -20 3 -24 -16 -15 47 -4 68 13 13 10 39 22 56 25 18 4 35
12 38 17 7 11 -46 79 -61 79 -6 0 -17 7 -24 15 -18 21 -26 19 -50 -16z"/>
<path d="M2050 2345 c0 -8 2 -15 4 -15 2 0 6 7 10 15 3 8 1 15 -4 15 -6 0 -10
-7 -10 -15z"/>
<path d="M3034 2316 c-3 -14 -3 -35 1 -47 7 -21 8 -21 21 10 13 31 10 61 -7
61 -5 0 -11 -11 -15 -24z"/>
<path d="M2506 2315 c-22 -22 -20 -30 9 -49 22 -14 26 -15 31 -2 8 21 1 59
-12 63 -7 2 -19 -3 -28 -12z"/>
<path d="M2938 2314 c-33 -17 -36 -43 -8 -75 l19 -24 1 43 c0 36 4 44 25 52
14 5 25 12 25 15 0 10 -35 4 -62 -11z"/>
<path d="M1237 2313 c-4 -3 -7 -11 -7 -17 0 -6 5 -5 12 2 6 6 9 14 7 17 -3 3
-9 2 -12 -2z"/>
<path d="M1435 2310 c-11 -18 15 -50 40 -50 31 0 32 10 2 38 -26 24 -33 27
-42 12z"/>
<path d="M2007 2293 c-2 -5 -2 -25 1 -46 6 -50 26 -43 30 11 2 32 0 42 -12 42
-8 0 -17 -3 -19 -7z"/>
<path d="M1632 2242 c-18 -15 -32 -31 -32 -37 0 -5 5 -2 11 7 5 10 28 22 50
28 22 6 37 15 34 20 -10 16 -28 11 -63 -18z"/>
<path d="M2268 2258 c-8 -7 -25 -28 -37 -45 l-22 -33 44 0 c33 0 49 6 67 25
23 24 23 25 5 45 -21 23 -35 25 -57 8z"/>
<path d="M1480 2220 c0 -5 5 -10 11 -10 5 0 7 5 4 10 -3 6 -8 10 -11 10 -2 0
-4 -4 -4 -10z"/>
<path d="M3465 2211 c-16 -10 -43 -33 -59 -50 l-30 -31 19 -53 c20 -54 27
-173 13 -234 l-7 -33 44 0 c41 0 47 3 55 28 20 53 36 77 91 137 l56 60 -27 22
c-41 34 -63 87 -55 134 l7 39 -39 0 c-21 0 -51 -8 -68 -19z"/>
<path d="M2993 2193 c-7 -2 -13 -18 -13 -33 0 -16 -4 -32 -10 -35 -5 -3 -10
-15 -10 -26 0 -31 19 -13 41 38 26 62 25 70 -8 56z"/>
<path d="M1767 2165 c-73 -24 -81 -29 -76 -43 5 -11 159 35 159 48 0 18 -17
17 -83 -5z"/>
<path d="M2444 2175 c11 -8 27 -15 35 -15 11 0 10 4 -5 15 -10 8 -26 14 -34
14 -11 0 -10 -3 4 -14z"/>
<path d="M3255 2118 c-67 -53 -91 -223 -46 -338 11 -30 21 -58 21 -62 0 -13
-61 -40 -76 -34 -8 3 -22 22 -30 41 -25 60 -60 43 -167 -83 -52 -62 -55 -7 -4
75 39 62 82 93 128 93 43 0 60 20 39 45 -22 26 -92 19 -137 -14 -39 -28 -104
-115 -123 -166 -27 -70 -1 -135 53 -135 26 0 42 11 92 64 l60 65 22 -25 c33
-37 101 -34 148 7 33 29 38 30 65 19 38 -16 100 -7 166 24 44 20 53 22 69 10
46 -34 83 -16 159 75 20 25 32 32 41 25 60 -44 62 -45 105 -35 23 5 52 19 65
31 27 25 62 87 53 95 -3 3 -29 -11 -58 -30 -65 -44 -89 -42 -113 8 -10 22 -24
37 -35 37 -9 0 -49 -34 -89 -75 -39 -41 -74 -75 -78 -75 -17 0 8 69 42 118 40
58 79 84 119 80 16 -2 31 4 37 14 27 41 -52 64 -112 33 -16 -8 -47 -35 -69
-60 -39 -44 -53 -69 -85 -146 -13 -32 -21 -38 -74 -52 -62 -18 -117 -22 -111
-9 51 98 53 107 52 202 -1 104 -17 157 -56 184 -30 21 -40 20 -73 -6z m56 -95
c17 -45 14 -153 -5 -198 -16 -38 -18 -39 -31 -21 -29 38 -32 151 -6 219 13 35
29 34 42 0z"/>
<path d="M1929 2098 c-8 -14 -4 -78 5 -78 31 1 56 14 56 31 0 22 -53 62 -61
47z"/>
<path d="M4002 2077 c-18 -19 -22 -34 -20 -73 l3 -49 -32 3 c-28 2 -33 -1 -33
-19 0 -17 5 -20 21 -16 31 8 49 -2 49 -29 0 -35 -21 -76 -54 -104 -16 -14 -37
-31 -45 -39 -9 -7 -4 -6 11 3 22 13 32 14 46 5 15 -10 30 -7 75 14 32 14 57
28 57 31 0 2 -14 27 -31 54 -28 45 -30 56 -26 109 3 32 9 75 12 96 8 43 -2 47
-33 14z"/>
<path d="M1680 2072 c0 -10 -5 -23 -12 -30 -16 -16 3 -16 34 1 l25 13 -24 17
c-22 17 -23 17 -23 -1z"/>
<path d="M2295 2076 c-16 -7 -36 -24 -43 -36 -14 -22 -13 -22 25 -16 39 7 85
34 87 51 2 16 -36 16 -69 1z"/>
<path d="M2412 2064 c13 -13 14 -22 6 -39 -8 -19 -6 -28 11 -46 20 -22 21 -24
4 -36 -12 -10 -14 -16 -6 -24 15 -15 116 8 106 24 -4 7 -6 26 -4 44 4 45 -48
93 -98 93 -33 0 -34 -1 -19 -16z"/>
<path d="M1150 2059 c0 -5 5 -7 10 -4 6 3 10 8 10 11 0 2 -4 4 -10 4 -5 0 -10
-5 -10 -11z"/>
<path d="M3830 2055 c0 -8 5 -15 10 -15 6 0 10 7 10 15 0 8 -4 15 -10 15 -5 0
-10 -7 -10 -15z"/>
<path d="M1255 2050 c-3 -5 -1 -10 4 -10 6 0 11 5 11 10 0 6 -2 10 -4 10 -3 0
-8 -4 -11 -10z"/>
<path d="M3896 2049 c2 -4 -1 -9 -7 -11 -6 -2 1 -9 16 -16 14 -7 24 -8 21 -3
-4 5 2 12 11 14 17 4 17 5 0 6 -10 0 -16 5 -13 9 2 4 -4 8 -14 8 -10 0 -17 -3
-14 -7z"/>
<path d="M535 2020 c3 -5 8 -10 11 -10 2 0 4 5 4 10 0 6 -5 10 -11 10 -5 0 -7
-4 -4 -10z"/>
<path d="M2050 2020 c0 -5 5 -10 10 -10 6 0 10 5 10 10 0 6 -4 10 -10 10 -5 0
-10 -4 -10 -10z"/>
<path d="M1880 2001 c-16 -30 -12 -36 10 -16 21 19 26 35 10 35 -5 0 -14 -9
-20 -19z"/>
<path d="M1515 2000 c3 -5 11 -10 16 -10 6 0 7 5 4 10 -3 6 -11 10 -16 10 -6
0 -7 -4 -4 -10z"/>
<path d="M2005 1975 c-16 -7 -30 -16 -30 -19 0 -3 29 -20 65 -37 36 -17 75
-40 88 -51 20 -19 22 -20 22 -4 0 19 -23 71 -43 97 -17 23 -67 30 -102 14z"/>
<path d="M4180 1970 c0 -24 -22 -26 -44 -5 -9 10 -17 11 -21 5 -12 -19 7 -74
35 -101 l27 -28 32 20 c25 15 31 25 31 54 0 34 -27 75 -50 75 -5 0 -10 -9 -10
-20z"/>
<path d="M1480 1950 c-12 -22 -5 -60 10 -60 19 0 60 20 60 29 0 5 -13 19 -29
31 l-30 21 -11 -21z"/>
<path d="M1580 1959 c0 -5 5 -9 10 -9 6 0 10 -9 10 -20 0 -11 4 -20 9 -20 13
0 33 28 27 38 -8 13 -56 22 -56 11z"/>
<path d="M4400 1951 c0 -5 5 -13 10 -16 6 -3 10 -2 10 4 0 5 -4 13 -10 16 -5
3 -10 2 -10 -4z"/>
<path d="M1123 1934 c-10 -26 22 -69 54 -72 15 -2 32 -10 36 -18 6 -11 13 -12
29 -3 21 11 21 12 3 25 -16 12 -16 14 -2 19 8 4 24 2 35 -4 13 -7 22 -7 30 1
20 20 14 26 -43 47 -68 26 -133 28 -142 5z"/>
<path d="M2220 1943 l-55 -4 25 -19 c23 -18 24 -21 11 -52 -7 -18 -15 -52 -16
-76 -3 -48 9 -59 60 -58 29 1 30 2 27 48 -3 42 -1 49 20 58 20 9 23 18 23 60
0 44 -2 50 -20 48 -11 -1 -45 -3 -75 -5z"/>
<path d="M1872 1888 c3 -41 3 -42 58 -55 30 -8 69 -17 85 -19 l30 -5 -25 20
c-14 11 -38 25 -55 31 -58 21 -80 36 -79 53 1 9 -2 17 -8 17 -5 0 -8 -19 -6
-42z"/>
<path d="M1388 1854 c-34 -55 -35 -64 -4 -64 31 0 75 64 59 88 -17 27 -27 23
-55 -24z"/>
<path d="M2625 1847 c-10 -8 -14 -17 -9 -20 5 -3 21 3 34 14 29 22 6 28 -25 6z"/>
<path d="M2691 1830 c-65 -36 -88 -56 -107 -92 -32 -62 -14 -84 83 -104 36 -8
72 -19 80 -25 38 -32 -8 -114 -102 -182 l-70 -51 31 -9 c25 -7 40 -4 80 16 81
41 134 118 134 193 0 56 -27 88 -87 104 -26 7 -56 14 -65 17 -31 8 -19 32 34
68 33 22 65 35 84 35 35 0 52 24 33 46 -18 22 -70 16 -128 -16z"/>
<path d="M1543 1830 c-27 -16 -53 -47 -53 -64 0 -3 16 2 35 10 51 21 61 17 31
-11 -29 -27 -55 -32 -74 -13 -9 9 -12 9 -12 0 0 -7 5 -12 11 -12 7 0 9 -11 5
-30 -3 -16 -9 -43 -12 -60 -4 -20 -2 -30 5 -30 7 0 10 -4 7 -9 -5 -8 15 -18
66 -35 10 -3 20 0 24 6 4 7 9 6 15 -3 15 -25 10 38 -7 80 -22 55 -15 83 23
102 32 16 32 16 13 34 -11 10 -20 26 -20 37 0 23 -17 23 -57 -2z m2 -110 c3
-5 1 -10 -4 -10 -6 0 -11 5 -11 10 0 6 2 10 4 10 3 0 8 -4 11 -10z"/>
<path d="M941 1820 c48 -77 89 -149 89 -155 0 -4 25 -44 56 -90 102 -155 251
-309 424 -439 36 -27 75 -60 86 -73 12 -12 29 -23 38 -23 9 0 21 -9 28 -20 7
-11 18 -20 24 -20 6 0 17 -11 24 -25 8 -16 26 -27 49 -32 42 -9 1356 -10 1796
-2 l300 6 110 37 c61 21 139 52 175 69 36 18 70 31 76 29 11 -2 54 88 54 113
0 8 -20 16 -50 20 -41 6 -56 3 -84 -14 -46 -29 -91 -27 -123 5 -21 22 -24 31
-19 64 9 59 26 90 50 90 12 0 31 3 44 6 17 5 22 2 22 -13 0 -11 9 -28 19 -37
17 -16 25 -16 56 -6 27 9 39 9 50 0 8 -6 22 -10 32 -8 15 3 18 13 18 58 0 55
3 58 38 45 13 -6 17 -2 17 15 0 12 5 30 11 41 6 11 8 25 6 32 -3 7 -8 4 -12
-8 -13 -32 -37 -55 -58 -55 -18 0 -19 -5 -14 -61 4 -52 3 -60 -11 -57 -21 4
-30 63 -31 195 -1 92 10 122 33 92 6 -8 19 -13 28 -11 9 2 26 -6 37 -17 17
-17 21 -18 21 -6 0 9 -12 20 -27 25 -16 6 -36 15 -45 20 -36 21 -58 6 -58 -39
0 -13 -9 -17 -37 -16 -21 0 -50 -3 -65 -8 -28 -7 -28 -7 -28 43 0 60 11 63 56
14 l33 -35 17 32 c15 30 15 33 0 44 -21 16 -20 28 4 43 25 16 17 32 -16 32
-24 0 -26 5 -28 60 -1 36 -31 37 -63 1 -16 -16 -43 -36 -62 -44 -34 -14 -34
-15 -12 -27 21 -11 21 -13 7 -29 -9 -10 -16 -34 -16 -54 0 -20 -4 -37 -10 -37
-5 0 -10 20 -10 44 0 68 -45 67 -70 0 -9 -23 -10 -23 -47 -8 -51 21 -81 50
-88 86 -8 35 -29 46 -52 27 -14 -12 -15 -11 -8 11 6 20 -3 15 -45 -27 -57 -56
-102 -74 -140 -53 -26 14 -50 7 -50 -16 0 -12 7 -15 30 -12 69 10 21 -9 -101
-41 -130 -33 -192 -39 -82 -7 32 9 64 23 71 31 7 8 21 15 32 15 10 0 22 5 26
12 5 8 2 9 -12 3 -10 -5 -56 -10 -102 -11 -59 -1 -88 -6 -100 -17 -42 -38
-113 -47 -163 -22 -29 16 -29 16 -82 -39 -35 -36 -67 -58 -93 -65 -53 -15 -72
-15 -56 1 16 16 15 28 -3 28 -8 0 -15 -8 -15 -18 0 -18 -59 -96 -92 -120 -9
-7 -24 -20 -33 -28 -43 -44 -203 -49 -219 -8 -9 23 10 42 54 54 42 11 93 47
85 60 -3 4 9 13 25 19 17 5 30 15 30 20 0 19 -26 12 -50 -14 -31 -33 -88 -47
-164 -41 -61 6 -63 5 -96 -29 -38 -39 -31 -45 15 -15 70 47 100 7 38 -51 -48
-44 -108 -63 -176 -55 -63 7 -109 36 -158 101 -39 52 -41 53 -97 57 -37 2 -65
-1 -79 -10 -32 -20 -84 -17 -131 7 l-42 21 0 -32 c0 -18 7 -62 15 -97 18 -73
14 -93 -19 -110 -55 -30 -90 10 -107 119 -6 41 -13 84 -15 96 -3 18 -13 22
-59 28 -84 10 -198 49 -278 97 -134 79 -232 147 -297 206 -37 33 -58 47 -49
33z m3188 -66 c-16 -31 -43 -33 -34 -1 9 28 38 53 44 36 2 -6 -2 -22 -10 -35z
m71 -53 c0 -5 -28 -20 -62 -33 l-61 -23 -4 -49 c-6 -71 -2 -77 44 -60 21 7 49
13 61 14 41 0 19 -22 -43 -45 -53 -20 -84 -45 -56 -45 6 0 11 4 11 10 0 5 19
14 43 20 23 7 52 18 65 26 21 14 22 13 22 -10 0 -21 -8 -27 -57 -42 -32 -10
-66 -17 -75 -16 -18 2 -24 -9 -12 -21 3 -3 28 3 55 14 59 23 97 26 81 6 -18
-22 -149 -80 -166 -74 -14 5 -16 28 -16 156 l0 150 38 10 c78 20 132 25 132
12z m-224 -58 c-3 -16 -15 -80 -26 -143 -32 -177 -40 -210 -56 -210 -20 0 -18
46 11 195 28 147 41 185 62 185 11 0 14 -7 9 -27z m-906 -51 c0 -4 -7 -18 -16
-30 -15 -21 -14 -22 12 -22 15 0 65 7 112 16 46 8 86 14 88 11 5 -4 -254 -57
-280 -57 -7 0 6 20 28 45 39 43 56 54 56 37z m300 -112 c22 -11 40 -25 40 -30
0 -18 -22 -22 -39 -6 -26 23 -39 20 -61 -16 -40 -67 -19 -130 53 -157 60 -23
35 -78 -40 -88 -50 -7 -113 20 -113 48 0 24 1 24 48 -1 31 -16 45 -19 66 -10
33 12 27 24 -23 49 -52 27 -64 45 -64 95 1 63 44 136 79 136 8 0 33 -9 54 -20z
m464 -115 c2 -102 0 -112 -21 -132 -27 -28 -64 -30 -86 -5 -19 21 -11 38 9 21
7 -6 23 -9 36 -7 18 2 24 10 26 39 3 36 2 37 -30 34 -17 -1 -34 -8 -36 -14 -2
-6 -17 -18 -33 -27 -22 -11 -34 -12 -50 -4 -16 9 -24 8 -38 -4 -24 -22 -38
-20 -56 8 -22 33 -17 110 8 114 15 3 17 -5 17 -54 0 -52 2 -57 15 -43 8 8 19
39 25 69 12 65 29 85 63 76 28 -7 40 -30 32 -57 -8 -26 -35 -24 -35 2 0 32
-17 13 -23 -26 -7 -43 0 -65 19 -65 22 0 54 60 54 101 0 33 14 59 32 59 4 0 8
-24 9 -52 0 -43 2 -49 10 -30 5 13 10 37 11 55 2 35 16 59 31 54 5 -1 10 -52
11 -112z m-244 60 c0 -9 -7 -18 -16 -22 -18 -7 -39 11 -30 26 11 17 46 13 46
-4z m630 -26 c0 -18 -2 -19 -15 -9 -8 7 -15 16 -15 21 0 5 7 9 15 9 9 0 15 -9
15 -21z m-770 -14 c0 -11 7 -14 25 -9 22 5 27 1 40 -30 24 -56 -2 -126 -47
-126 -20 0 -20 -1 -4 -104 0 -5 -5 -11 -11 -13 -23 -8 -33 46 -33 173 0 104 2
124 15 124 8 0 15 -7 15 -15z"/>
<path d="M3461 1303 c-14 -49 -14 -53 3 -53 17 0 26 22 26 61 0 41 -17 36 -29
-8z"/>
<path d="M2335 1815 c-18 -15 -19 -17 -3 -43 14 -22 22 -26 45 -22 57 10 123
3 142 -14 28 -25 37 -2 12 30 -12 15 -21 33 -21 40 0 10 -16 14 -57 14 -32 0
-67 2 -78 5 -11 3 -29 -2 -40 -10z"/>
<path d="M1853 1793 c-17 -36 -16 -73 3 -119 19 -45 33 -57 51 -42 18 15 16
38 -6 62 -11 12 -23 45 -28 73 -8 52 -8 52 -20 26z"/>
<path d="M520 1800 c0 -5 5 -10 10 -10 6 0 10 5 10 10 0 6 -4 10 -10 10 -5 0
-10 -4 -10 -10z"/>
<path d="M2850 1804 c0 -6 -12 -17 -26 -24 -23 -13 -24 -15 -7 -21 47 -19 74
2 48 38 -8 10 -15 13 -15 7z"/>
<path d="M1681 1754 c9 -10 19 -31 23 -46 8 -36 39 -38 34 -3 -2 17 -15 34
-38 47 -32 20 -34 20 -19 2z"/>
<path d="M1603 1725 c-3 -9 2 -39 11 -68 9 -29 25 -113 36 -187 26 -167 32
-191 52 -203 27 -17 51 -1 44 31 -11 51 -36 235 -33 239 2 2 15 -5 28 -15 36
-28 106 -62 128 -62 27 0 77 44 107 96 14 24 30 42 34 39 4 -3 23 -31 40 -62
45 -79 106 -160 135 -179 37 -24 144 -30 181 -11 27 14 63 47 52 47 -3 0 -20
-8 -39 -17 -46 -23 -102 -22 -136 3 -37 27 -88 104 -159 237 -51 97 -60 108
-82 105 -27 -3 -32 -10 -56 -79 -9 -26 -32 -64 -50 -85 l-33 -38 -46 27 c-51
30 -103 90 -136 155 -17 33 -27 42 -47 42 -13 0 -27 -7 -31 -15z"/>
<path d="M2395 1725 c-122 -65 -212 -264 -140 -311 47 -31 88 -6 172 105 10
14 15 12 38 -13 24 -26 31 -28 78 -23 46 4 56 9 89 48 21 24 38 52 38 62 0 19
-15 23 -25 7 -11 -19 -104 -60 -119 -54 -9 3 -20 20 -24 38 -6 23 -15 32 -34
34 -25 3 -46 -15 -136 -118 -25 -29 -32 -32 -37 -19 -9 23 35 106 79 152 30
30 44 37 75 37 47 0 72 23 50 45 -23 23 -71 27 -104 10z"/>
<path d="M3160 1725 c0 -9 6 -12 15 -9 8 4 15 10 15 15 0 5 -7 9 -15 9 -8 0
-15 -7 -15 -15z"/>
<path d="M530 1700 l-25 -6 25 -7 c26 -7 34 -4 29 11 -2 4 -15 5 -29 2z"/>
<path d="M2205 1700 c-3 -5 -18 -10 -33 -10 -26 0 -27 -2 -24 -40 3 -25 0 -40
-7 -40 -19 0 -12 -25 17 -63 29 -39 42 -46 42 -23 0 8 16 42 35 76 41 72 41
72 17 93 -21 19 -38 22 -47 7z"/>
<path d="M1350 1680 c-13 -8 -13 -11 2 -26 19 -19 38 -11 38 17 0 21 -16 24
-40 9z"/>
<path d="M445 1640 c-3 -5 1 -10 10 -10 9 0 13 5 10 10 -3 6 -8 10 -10 10 -2
0 -7 -4 -10 -10z"/>
<path d="M2405 1630 c-3 -6 1 -7 9 -4 18 7 21 14 7 14 -6 0 -13 -4 -16 -10z"/>
<path d="M4586 1623 c-4 -9 -3 -20 2 -25 6 -6 12 -1 15 11 6 25 -8 38 -17 14z"/>
<path d="M530 1605 c-16 -19 -1 -19 24 0 16 12 17 15 4 15 -8 0 -21 -7 -28
-15z"/>
<path d="M528 1543 c7 -3 16 -2 19 1 4 3 -2 6 -13 5 -11 0 -14 -3 -6 -6z"/>
<path d="M1987 1520 l-18 -30 35 0 c41 0 43 5 18 38 l-17 22 -18 -30z"/>
<path d="M4280 1526 c-14 -38 -13 -66 4 -66 17 0 32 68 17 83 -7 7 -13 2 -21
-17z"/>
<path d="M458 1533 c7 -3 16 -2 19 1 4 3 -2 6 -13 5 -11 0 -14 -3 -6 -6z"/>
<path d="M1575 1515 c17 -7 32 -11 35 -9 7 8 -24 24 -45 23 -15 0 -13 -4 10
-14z"/>
<path d="M425 1510 c-3 -5 1 -10 9 -10 9 0 16 5 16 10 0 6 -4 10 -9 10 -6 0
-13 -4 -16 -10z"/>
<path d="M520 1509 c0 -5 5 -7 10 -4 6 3 10 8 10 11 0 2 -4 4 -10 4 -5 0 -10
-5 -10 -11z"/>
<path d="M531 1481 c-10 -7 -8 -10 8 -16 27 -8 36 -2 18 13 -7 6 -18 7 -26 3z"/>
<path d="M4440 1480 c0 -5 5 -10 11 -10 5 0 7 5 4 10 -3 6 -8 10 -11 10 -2 0
-4 -4 -4 -10z"/>
<path d="M527 1444 c-3 -5 3 -15 13 -22 12 -7 21 -8 25 -2 3 6 0 10 -9 10 -8
0 -16 5 -18 12 -3 7 -7 8 -11 2z"/>
<path d="M4688 1434 c-14 -15 -14 -21 6 -78 11 -33 21 -62 21 -62 0 -1 10 -4
22 -8 34 -11 70 30 77 86 l5 46 -38 -5 c-30 -4 -42 -1 -58 16 -17 19 -20 19
-35 5z"/>
<path d="M455 1420 c3 -5 8 -10 11 -10 2 0 4 5 4 10 0 6 -5 10 -11 10 -5 0 -7
-4 -4 -10z"/>
<path d="M525 1400 c-3 -5 1 -10 10 -10 9 0 13 5 10 10 -3 6 -8 10 -10 10 -2
0 -7 -4 -10 -10z"/>
<path d="M425 1390 c3 -5 8 -10 11 -10 2 0 4 5 4 10 0 6 -5 10 -11 10 -5 0 -7
-4 -4 -10z"/>
<path d="M4454 1378 c-14 -22 11 -55 57 -75 27 -12 49 -17 49 -12 0 5 -7 12
-16 16 -15 5 -15 7 1 15 12 7 22 5 36 -8 17 -15 19 -15 19 -1 0 9 -11 29 -24
44 -20 23 -32 28 -71 28 -26 0 -49 -3 -51 -7z"/>
<path d="M550 1275 c0 -14 4 -25 9 -25 4 0 6 11 3 25 -2 14 -6 25 -8 25 -2 0
-4 -11 -4 -25z"/>
<path d="M450 1240 c0 -5 5 -10 11 -10 5 0 7 5 4 10 -3 6 -8 10 -11 10 -2 0
-4 -4 -4 -10z"/>
<path d="M455 1190 c3 -5 8 -10 11 -10 2 0 4 5 4 10 0 6 -5 10 -11 10 -5 0 -7
-4 -4 -10z"/>
<path d="M545 1180 c3 -5 8 -10 11 -10 2 0 4 5 4 10 0 6 -5 10 -11 10 -5 0 -7
-4 -4 -10z"/>
<path d="M425 1120 c-3 -5 1 -10 10 -10 9 0 13 5 10 10 -3 6 -8 10 -10 10 -2
0 -7 -4 -10 -10z"/>
<path d="M520 1120 c0 -5 5 -10 10 -10 6 0 10 5 10 10 0 6 -4 10 -10 10 -5 0
-10 -4 -10 -10z"/>
<path d="M3485 920 c-3 -5 -3 -10 2 -10 4 0 0 -5 -9 -11 -14 -8 -18 -23 -18
-69 l0 -60 35 0 c24 0 35 5 35 15 0 8 -9 15 -20 15 -11 0 -20 7 -20 15 0 8 7
15 15 15 8 0 15 5 15 10 0 6 -7 10 -15 10 -20 0 -19 17 3 30 11 8 13 13 5 16
-7 3 -9 12 -6 20 6 16 -12 19 -22 4z"/>
<path d="M3636 894 c-21 -20 -21 -21 10 -49 l26 -25 -26 -10 c-29 -11 -27 -30
3 -30 18 0 41 18 41 32 0 5 -12 20 -26 33 -26 24 -25 45 2 45 8 0 14 5 14 10
0 15 -27 12 -44 -6z"/>
<path d="M3427 894 c-4 -4 -7 -19 -7 -33 l-1 -26 -15 28 c-24 44 -43 34 -46
-25 l-3 -53 -20 53 c-12 33 -25 51 -34 50 -8 -2 -23 -28 -35 -58 l-21 -55 -5
40 c-4 26 -1 44 7 51 23 20 14 26 -39 22 -45 -4 -53 -8 -58 -28 l-6 -23 -17
27 c-23 34 -33 27 -41 -26 l-7 -43 -19 43 c-10 23 -24 42 -30 42 -6 0 -22 -24
-34 -52 l-23 -53 -5 40 c-3 29 0 43 11 52 13 10 10 12 -21 13 -34 0 -52 -13
-30 -22 11 -4 2 -88 -9 -88 -5 0 -9 11 -9 24 0 14 -10 32 -22 40 -22 16 -22
16 -3 31 20 14 20 14 -1 15 -22 0 -44 -18 -44 -37 0 -7 10 -21 22 -33 l22 -20
-22 0 c-17 0 -24 9 -33 46 -11 44 -13 45 -24 24 l-12 -23 -16 23 c-18 25 -37
19 -38 -13 -1 -20 -2 -19 -13 6 -16 35 -24 26 -32 -35 -5 -37 -11 -48 -24 -48
-13 0 -17 6 -13 19 4 18 -14 44 -39 54 -9 4 -8 10 6 21 19 16 19 16 -2 16 -41
0 -52 -59 -14 -76 14 -6 13 -8 -8 -14 -29 -7 -60 -2 -60 11 0 5 7 9 15 9 8 0
15 7 15 15 0 8 -9 15 -20 15 -25 0 -25 9 -2 26 15 12 15 13 -10 14 -24 0 -27
-4 -34 -45 -6 -45 -34 -66 -34 -26 0 11 -5 32 -11 48 -10 26 -12 27 -19 8 -5
-11 -9 -32 -9 -47 -1 -20 -6 -28 -19 -28 -14 0 -18 8 -19 36 -1 40 -23 74 -23
37 0 -12 -4 -25 -10 -28 -5 -3 -10 3 -10 14 0 29 -17 35 -24 8 l-7 -22 -11 25
c-10 24 -10 24 -18 5 -5 -11 -9 -33 -9 -48 -1 -41 -25 -29 -29 14 -2 19 -7 38
-11 42 -11 11 -24 -58 -16 -82 3 -11 0 -21 -8 -24 -11 -4 -13 4 -10 37 9 73
-53 104 -87 44 -12 -22 -12 -33 -3 -58 9 -24 9 -30 0 -27 -7 2 -13 26 -15 53
-3 53 -22 88 -22 41 0 -34 -13 -35 -28 -2 -6 14 -16 25 -21 25 -10 0 -21 -48
-21 -90 0 -16 -7 -30 -16 -34 -13 -5 -15 2 -9 52 7 65 -7 57 -26 -15 -10 -37
-15 -43 -43 -47 -48 -8 -254 -16 -431 -17 -126 -1 -166 -5 -187 -17 -22 -13
-32 -13 -53 -4 -42 19 -86 15 -92 -8 -5 -20 -43 -29 -43 -10 0 6 7 10 15 10 8
0 15 4 15 10 0 12 -191 10 -207 -3 -19 -14 -16 -54 4 -66 10 -6 13 -11 6 -11
-6 0 -18 8 -25 18 -7 10 -21 21 -31 25 -21 8 -14 27 9 27 8 0 12 5 9 10 -3 6
-17 10 -30 10 -18 0 -25 -7 -30 -29 -5 -23 -10 -27 -29 -24 -24 5 -49 -18 -28
-25 7 -2 12 -8 12 -14 0 -6 -6 -6 -15 2 -30 25 -7 85 26 64 5 -3 9 2 9 10 0 9
-9 16 -20 16 -24 0 -60 -34 -60 -55 0 -12 -4 -13 -18 -6 -20 11 -52 -2 -33
-13 14 -9 15 -26 1 -26 -14 0 -31 37 -24 54 3 9 17 16 31 16 15 0 23 5 20 13
-5 14 -44 12 -64 -4 -16 -14 -17 -81 -1 -97 19 -19 78 -15 78 5 0 15 2 15 18
0 25 -23 205 -21 234 3 25 20 17 55 -12 63 -33 9 -23 29 12 25 32 -3 33 -4 30
-46 -3 -32 0 -44 13 -48 23 -9 37 14 31 53 -3 18 -1 35 4 38 5 3 10 -16 12
-42 l3 -48 68 -1 c50 -1 73 3 90 16 25 19 85 31 93 18 3 -4 -2 -8 -10 -8 -9 0
-16 -5 -16 -10 0 -17 27 -22 50 -10 16 8 25 8 35 0 21 -17 88 -6 95 16 6 17 8
17 19 -4 17 -33 35 -28 27 8 -7 39 12 39 25 0 14 -38 37 -38 50 0 14 39 29 39
29 0 0 -35 17 -40 30 -7 l9 22 0 -22 c1 -30 19 -30 30 0 9 21 9 21 17 2 15
-39 44 -41 44 -3 0 19 2 19 21 -6 15 -20 29 -26 48 -24 22 3 26 8 29 41 3 34
1 37 -22 37 -28 0 -33 -9 -14 -28 6 -6 9 -15 5 -19 -11 -11 -29 13 -25 33 2
14 13 19 41 20 l38 1 -7 -45 c-8 -54 8 -51 28 6 l13 37 5 -39 c5 -42 30 -63
30 -27 0 13 9 25 23 30 19 7 23 5 27 -18 6 -31 23 -31 31 1 6 23 6 23 17 -4
17 -41 36 -36 28 6 -4 19 -2 37 3 40 6 4 11 -10 13 -31 2 -31 7 -39 27 -41 33
-5 53 17 23 24 -25 7 -30 24 -7 24 18 0 20 26 3 33 -9 4 -8 6 2 6 8 0 28 -13
44 -29 28 -29 29 -30 7 -30 -14 0 -21 -5 -19 -12 7 -21 41 -22 55 -2 13 18 15
18 24 2 12 -22 59 -24 59 -3 0 8 -7 15 -15 15 -8 0 -15 5 -15 10 0 6 7 10 15
10 18 0 20 26 3 33 -8 3 -6 6 4 6 13 1 18 -9 20 -39 3 -44 20 -55 28 -19 5 22
6 22 23 -4 25 -38 34 -34 41 18 7 46 26 63 26 23 0 -35 11 -68 20 -63 5 3 11
23 15 45 10 57 29 52 21 -5 -7 -43 5 -63 18 -30 7 19 30 19 46 0 19 -23 33 -3
20 29 -14 37 -13 46 4 46 10 0 16 -13 18 -40 4 -50 22 -57 26 -10 6 66 22 60
34 -13 4 -25 22 -23 26 3 3 20 4 20 23 -5 26 -32 52 -32 78 0 l20 26 3 -23 c4
-29 21 -27 28 3 5 21 6 21 18 -5 17 -37 36 -28 42 20 5 36 7 39 40 42 28 2 41
-3 65 -28 28 -29 28 -30 6 -30 -28 0 -23 -24 7 -28 13 -2 26 5 33 16 12 20 13
20 29 -1 21 -25 65 -17 75 13 6 20 7 20 23 1 28 -33 82 -32 83 2 l0 22 16 -23
c11 -15 26 -22 49 -22 33 0 34 1 34 40 0 33 -3 40 -19 40 -23 0 -40 -22 -23
-28 7 -2 12 -10 12 -18 0 -8 -6 -11 -16 -7 -9 3 -14 15 -12 32 2 22 8 26 33
26 28 0 30 -3 35 -40 5 -37 8 -40 38 -43 35 -4 45 16 12 25 -26 7 -25 16 5 29
22 11 24 10 27 -20 3 -36 20 -38 29 -4 6 23 6 23 18 -5 14 -35 34 -25 26 13
-3 16 -2 31 4 35 7 4 11 -7 11 -29 0 -40 11 -50 46 -42 29 8 32 26 4 26 -11 0
-20 7 -20 15 0 8 4 15 9 15 5 0 16 3 25 6 13 5 16 -1 16 -25 0 -28 3 -31 29
-31 36 0 51 19 22 27 -23 6 -29 23 -8 23 7 0 18 5 24 11 12 12 127 13 223 3
25 -2 107 -11 183 -19 77 -8 179 -15 227 -15 49 0 92 -4 95 -10 3 -5 24 -10
46 -10 51 0 64 25 55 104 -6 45 -11 56 -26 56 -10 0 -18 -6 -17 -12 1 -43 -4
-68 -14 -63 -6 4 -9 23 -8 44 2 27 -1 35 -11 33 -22 -5 -30 -23 -30 -64 0 -21
-4 -38 -10 -38 -5 0 -10 17 -10 38 0 82 -25 111 -36 42 -11 -68 -23 -62 -39
18 -8 39 -22 33 -31 -13 -7 -40 -19 -45 -31 -12 -7 22 -9 29 -12 74 -1 15 -9
25 -26 29 -36 9 -58 -13 -52 -51 3 -21 -1 -39 -13 -55 l-18 -25 -7 28 c-4 15
-5 44 -3 66 5 53 -8 42 -28 -25 -17 -61 -18 -61 -109 -40 -91 21 -191 30 -199
17 -4 -7 -65 -10 -174 -10 l-167 0 3 61 c4 56 -6 87 -21 72z m-1248 -42 c14
-26 2 -64 -18 -60 -26 5 -28 78 -2 78 6 0 15 -8 20 -18z m1030 -14 c-4 -81
-29 -96 -29 -18 0 38 4 50 15 50 11 0 15 -9 14 -32z m1019 -21 c4 -20 -25 -34
-40 -19 -15 15 -1 44 19 40 10 -2 19 -11 21 -21z m-815 -49 c-11 -20 -23 -4
-23 30 l1 37 13 -30 c7 -16 11 -33 9 -37z m-1353 10 c0 -10 -4 -18 -10 -18 -5
0 -10 15 -10 33 0 24 3 28 10 17 5 -8 10 -23 10 -32z m257 -5 c-3 -10 -5 -2
-5 17 0 19 2 27 5 18 2 -10 2 -26 0 -35z m40 25 c-3 -8 -6 -5 -6 6 -1 11 2 17
5 13 3 -3 4 -12 1 -19z m776 -8 c3 -11 1 -20 -4 -20 -5 0 -9 9 -9 20 0 11 2
20 4 20 2 0 6 -9 9 -20z m-349 -5 c3 -8 1 -15 -4 -15 -6 0 -10 7 -10 15 0 8 2
15 4 15 2 0 6 -7 10 -15z m536 -5 c0 -5 -9 -10 -20 -10 -11 0 -20 5 -20 10 0
6 9 10 20 10 11 0 20 -4 20 -10z m-277 -7 c-7 -2 -19 -2 -25 0 -7 3 -2 5 12 5
14 0 19 -2 13 -5z m1167 -29 c0 -8 -5 -12 -10 -9 -6 4 -8 11 -5 16 9 14 15 11
15 -7z m-1080 -101 c0 -14 -6 -23 -15 -23 -15 0 -22 50 -8 63 9 10 23 -14 23
-40z m111 38 c-25 -7 -42 -31 -22 -31 6 0 11 -7 11 -16 0 -21 -24 -12 -28 10
-6 30 6 46 35 45 27 -1 27 -1 4 -8z m-998 -21 c3 -11 2 -20 -2 -20 -3 0 -12 9
-19 20 -10 16 -10 20 2 20 7 0 16 -9 19 -20z m522 -11 c0 -15 -7 -25 -17 -27
-13 -3 -18 3 -18 21 0 13 3 27 7 31 13 12 28 -1 28 -25z m299 15 c10 -25 1
-27 -19 -4 -15 17 -16 20 -3 20 9 0 19 -7 22 -16z m-1914 -24 c0 -5 -8 -10
-17 -10 -15 0 -16 2 -3 10 19 12 20 12 20 0z m300 -4 c0 -9 -7 -12 -20 -9 -11
3 -20 9 -20 14 0 5 9 9 20 9 11 0 20 -6 20 -14z"/>
<path d="M3549 893 c0 -5 -2 -28 -5 -53 -6 -60 -1 -68 35 -62 35 5 41 21 11
29 -25 7 -25 12 -2 29 16 13 16 13 0 14 -22 0 -24 30 -3 30 8 0 15 5 15 10 0
11 -50 14 -51 3z"/>
<path d="M710 823 c0 -68 5 -66 14 5 4 33 3 52 -4 52 -6 0 -10 -24 -10 -57z"/>
<path d="M750 856 c0 -19 4 -24 15 -19 18 6 16 34 -2 41 -8 2 -13 -6 -13 -22z"/>
<path d="M810 864 c0 -8 5 -12 10 -9 6 3 10 10 10 16 0 5 -4 9 -10 9 -5 0 -10
-7 -10 -16z"/>
<path d="M860 870 c0 -5 7 -7 15 -4 8 4 15 8 15 10 0 2 -7 4 -15 4 -8 0 -15
-4 -15 -10z"/>
<path d="M1207 872 c7 -4 11 -25 10 -49 -1 -23 3 -42 8 -42 6 0 10 16 10 37 0
20 4 43 8 50 6 8 0 12 -20 12 -17 0 -23 -3 -16 -8z"/>
<path d="M1317 859 c-10 -36 -8 -77 3 -84 6 -4 10 7 10 24 0 39 15 40 29 1 14
-41 41 -40 41 3 0 42 -14 66 -24 41 -6 -16 -10 -15 -30 11 l-23 28 -6 -24z"/>
<path d="M1427 862 c-34 -37 -13 -92 33 -92 22 0 33 7 44 28 9 16 15 21 16 11
0 -20 31 -49 53 -49 18 0 47 37 47 61 0 9 -8 27 -18 39 -23 28 -67 21 -78 -12
-6 -22 -7 -21 -26 5 -23 31 -48 34 -71 9z m48 -32 c0 -39 -19 -50 -35 -21 -8
15 -8 27 0 42 16 29 35 18 35 -21z m113 -3 c3 -32 0 -37 -17 -37 -26 0 -39 43
-21 65 20 24 35 12 38 -28z"/>
<path d="M1635 846 c-11 -54 -3 -81 23 -84 52 -8 83 66 44 101 -32 29 -60 22
-67 -17z m53 -19 c-4 -42 -24 -45 -31 -5 -6 40 -1 49 19 41 10 -4 14 -16 12
-36z"/>
<path d="M1735 849 c-4 -20 -5 -47 -3 -60 3 -22 8 -24 71 -26 42 -2 67 1 67 8
0 6 -9 13 -20 16 -23 6 -27 23 -5 23 8 0 15 7 15 15 0 8 -6 15 -14 15 -26 0
-28 20 -4 29 23 10 23 10 -4 10 -25 1 -28 -3 -34 -50 -5 -38 -10 -49 -21 -45
-8 4 -17 6 -19 6 -2 0 -4 12 -5 28 0 15 -4 36 -9 47 -6 17 -9 15 -15 -16z"/>
<path d="M1892 868 c-18 -18 -15 -36 8 -50 11 -7 20 -16 20 -19 0 -4 -9 -9
-20 -12 -24 -6 -26 -23 -4 -31 19 -7 54 20 54 41 0 7 -11 23 -26 35 -23 21
-24 23 -8 35 14 10 15 13 3 13 -8 0 -20 -5 -27 -12z"/>
<path d="M1094 825 c-7 -48 -3 -62 16 -50 6 4 8 16 5 26 -4 11 -1 26 5 34 6 8
9 19 5 25 -13 21 -24 9 -31 -35z"/>
<path d="M1160 851 c0 -16 -4 -21 -15 -17 -17 6 -19 -3 -5 -38 15 -41 40 -33
40 12 0 20 -5 44 -10 52 -8 12 -10 10 -10 -9z"/>
<path d="M1044 842 c11 -19 -3 -35 -20 -21 -11 9 -16 6 -25 -15 -7 -14 -9 -29
-4 -34 4 -4 10 -1 12 6 6 15 35 16 51 0 6 -6 15 -9 18 -5 8 8 -14 65 -29 74
-6 3 -7 1 -3 -5z"/>
<path d="M4307 843 c-4 -3 -7 -11 -7 -17 0 -7 3 -7 8 0 4 7 16 14 27 17 19 5
19 5 -1 6 -11 0 -24 -2 -27 -6z"/>
<path d="M4545 809 c3 -24 1 -69 -4 -99 -10 -61 -6 -77 15 -59 21 17 28 76 15
135 -15 67 -35 84 -26 23z"/>
<path d="M952 795 c0 -16 2 -22 5 -12 2 9 2 23 0 30 -3 6 -5 -1 -5 -18z"/>
<path d="M870 784 l-25 -14 26 0 c15 0 29 7 33 15 6 18 -1 18 -34 -1z"/>
<path d="M477 703 c-12 -11 -8 -40 8 -53 21 -18 19 -30 -7 -30 -16 0 -19 -3
-11 -11 18 -18 58 -7 61 18 2 16 -4 26 -22 35 -30 13 -34 34 -8 41 14 4 14 5
1 6 -9 0 -19 -2 -22 -6z"/>
<path d="M547 697 c-11 -28 -8 -82 5 -95 7 -7 21 -12 33 -12 33 0 45 20 45 72
0 36 -4 48 -15 48 -11 0 -15 -12 -15 -45 0 -33 -4 -45 -15 -45 -14 0 -21 18
-27 70 -3 21 -4 22 -11 7z"/>
<path d="M4630 660 c0 -5 5 -10 11 -10 5 0 7 5 4 10 -3 6 -8 10 -11 10 -2 0
-4 -4 -4 -10z"/>
</g>
</svg>
