<?xml version="1.0" standalone="no"?>
<!DOCTYPE svg PUBLIC "-//W3C//DTD SVG 20010904//EN"
 "http://www.w3.org/TR/2001/REC-SVG-20010904/DTD/svg10.dtd">
<svg version="1.0" xmlns="http://www.w3.org/2000/svg"
 width="435.000000pt" height="500.000000pt" viewBox="0 0 435.000000 500.000000"
 preserveAspectRatio="xMidYMid meet">

<g transform="translate(0.000000,500.000000) scale(0.100000,-0.100000)"
fill="#000000" stroke="none">
<path d="M3307 4953 c-1 -1 -81 -4 -177 -8 -96 -4 -204 -9 -240 -11 -55 -4
-594 -10 -1165 -14 -88 -1 -236 1 -330 4 -93 3 -369 8 -612 10 l-443 5 0 -28
0 -28 152 -6 c83 -4 248 -8 367 -8 119 -1 250 -4 291 -8 41 -3 -124 -4 -367
-2 -403 3 -443 2 -443 -13 0 -14 27 -16 253 -17 138 0 275 -5 302 -9 31 -6
-65 -7 -252 -5 -187 3 -305 1 -308 -5 -4 -6 15 -11 44 -11 28 -1 56 -3 61 -4
6 -1 112 -4 238 -6 l227 -4 -283 -5 c-332 -6 -383 -22 -95 -30 220 -7 207 -13
-26 -14 -122 -1 -165 -4 -168 -13 -4 -10 17 -13 81 -13 46 0 88 -4 91 -10 4
-6 -27 -10 -84 -10 -52 0 -91 -4 -91 -10 0 -5 4 -42 9 -82 6 -40 15 -127 21
-193 15 -160 51 -468 56 -476 12 -20 26 -293 39 -779 15 -537 25 -741 45 -920
5 -47 12 -137 16 -201 l7 -115 42 -15 c36 -13 45 -14 61 -2 11 9 37 13 64 11
49 -2 115 16 142 40 10 8 41 17 70 20 31 2 61 12 73 22 47 42 115 58 273 63
39 2 56 7 63 19 5 10 29 29 53 43 50 29 108 33 163 10 43 -18 46 -18 37 -2 -4
7 -3 9 2 4 5 -5 9 -12 9 -15 0 -4 4 -13 9 -21 15 -24 -35 -39 -114 -33 -36 3
-103 -25 -130 -53 -22 -23 -25 -24 -42 -8 -22 20 -24 8 -2 -14 11 -11 12 -19
5 -26 -8 -8 -15 -7 -23 1 -20 20 -29 14 -22 -14 l7 -27 -61 7 c-34 4 -63 3
-66 -2 -3 -5 -24 -6 -48 -2 -24 5 -46 6 -51 3 -4 -2 -6 1 -5 8 2 6 -3 14 -11
17 -9 3 -11 0 -6 -8 5 -8 4 -11 -3 -7 -20 13 -42 -5 -42 -34 0 -16 4 -29 8
-29 5 0 9 -14 9 -30 0 -51 20 -77 65 -83 41 -6 78 -31 78 -53 0 -10 -6 -11
-26 -4 -49 19 -117 12 -154 -15 -39 -29 -40 -29 -40 -12 0 7 13 27 30 45 l29
32 -19 45 c-16 38 -24 45 -48 45 -15 0 -33 5 -40 12 -9 9 -12 9 -12 0 0 -7 3
-12 8 -12 13 0 43 -82 37 -99 -5 -12 -11 -7 -26 21 -10 20 -23 39 -28 42 -5 3
-7 16 -4 27 5 19 4 20 -17 9 -12 -7 -35 -9 -51 -6 -16 3 -29 2 -29 -2 0 -5
-15 -6 -34 -4 -27 3 -39 -2 -65 -30 -29 -31 -37 -29 -32 9 1 6 -8 14 -19 18
-29 9 -84 16 -77 9 3 -3 1 -21 -5 -40 -13 -48 1 -64 51 -57 38 5 39 5 33 -22
-4 -23 -8 -26 -31 -22 -47 10 -79 -27 -100 -113 -23 -92 -71 -319 -81 -380 -4
-25 -26 -133 -49 -240 -40 -183 -91 -462 -86 -468 1 -1 49 9 106 22 146 34
407 85 449 88 19 1 57 1 83 0 46 -2 47 -3 30 -21 -13 -14 -102 -36 -341 -87
-178 -38 -329 -72 -335 -76 -9 -5 -12 -63 -12 -195 l0 -188 615 4 c999 6 1995
5 2445 -3 231 -4 426 -7 433 -6 19 1 37 1 177 -1 195 -2 185 -4 185 30 l0 29
-232 6 c-737 20 -796 25 -275 20 503 -4 507 -4 507 16 0 20 -7 20 -277 21
-153 1 -309 5 -348 9 -42 4 69 7 278 8 191 1 347 6 347 10 0 9 -314 22 -532
22 -78 0 -129 4 -133 10 -5 8 96 9 329 4 309 -7 336 -6 336 9 0 11 -9 18 -22
18 -13 1 -126 5 -253 8 l-230 7 253 2 c216 2 252 4 252 17 0 8 -1 16 -2 17 -2
1 -79 4 -173 8 l-170 6 173 2 172 2 0 43 c0 24 -6 50 -12 59 -12 14 -194 53
-610 130 -35 6 -55 15 -51 21 6 9 -6 8 -72 -9 -16 -4 -17 -3 -5 5 19 14 12 13
-90 -3 -47 -8 -86 -13 -87 -12 -4 3 212 87 274 107 159 51 237 149 238 299 0
64 -5 85 -32 143 -36 76 -111 161 -172 195 -37 21 -42 22 -48 6 -4 -11 1 -22
16 -33 17 -13 19 -19 10 -28 -10 -10 -16 -8 -30 8 -18 20 -18 20 -24 -14 -9
-45 10 -87 75 -167 68 -85 82 -114 83 -170 1 -67 -26 -109 -92 -143 -102 -51
-203 -30 -295 64 -46 47 -48 52 -43 94 5 51 40 109 76 125 32 15 36 7 23 -39
-14 -47 -15 -98 -2 -106 12 -7 2 -36 -18 -52 -14 -11 -13 -15 4 -34 31 -34 92
-60 153 -65 l56 -4 -45 15 c-131 43 -176 166 -89 239 107 90 288 -67 190 -165
-44 -44 -101 -39 -158 14 -51 46 -17 127 52 127 64 0 107 -66 69 -104 -31 -32
-100 -9 -92 30 4 22 35 31 52 14 8 -9 6 -11 -12 -5 -20 6 -23 4 -20 -12 4 -20
45 -30 60 -15 33 33 -37 96 -81 73 -71 -39 -28 -131 61 -131 82 0 107 83 44
146 -29 29 -41 34 -83 34 -59 0 -88 -18 -103 -65 -18 -54 2 -100 58 -136 151
-96 287 61 180 207 -13 17 -44 59 -70 94 -41 54 -48 69 -48 109 0 26 8 63 19
84 l19 38 -24 10 c-14 5 -36 9 -48 9 -12 0 -26 3 -30 7 -3 4 -29 6 -56 4 -31
-1 -50 2 -50 8 0 6 -7 11 -15 11 -8 0 -15 -5 -15 -10 0 -6 -12 -15 -27 -21
-16 -5 -53 -23 -84 -39 -55 -28 -80 -30 -59 -4 8 9 2 17 -23 33 -19 12 -41 21
-48 21 -18 1 -91 35 -85 41 2 2 39 2 80 -1 42 -3 76 -3 76 0 0 11 -65 29 -121
34 -31 3 -64 9 -74 12 -13 5 -16 4 -11 -4 4 -7 1 -12 -8 -12 -24 0 -19 -15 15
-55 64 -72 93 -227 49 -258 -19 -13 -19 -14 10 -48 33 -38 42 -99 15 -99 -8 0
-24 -14 -34 -31 l-18 -30 -5 26 c-4 16 2 34 13 49 23 29 24 36 3 36 -8 0 -12
-4 -9 -10 3 -5 1 -10 -5 -10 -6 0 -20 20 -31 45 -15 33 -27 47 -47 51 -15 4
-33 11 -39 17 -7 5 -13 5 -13 0 0 -4 -18 -7 -40 -5 l-41 4 32 24 c19 14 47 24
66 24 28 0 32 3 30 23 -3 29 25 30 38 0 6 -14 20 -23 40 -25 l31 -4 -10 46
c-5 25 -20 60 -32 79 l-23 34 -12 -27 c-16 -34 -29 -17 -29 39 -1 41 -18 75
-39 75 -6 0 -11 7 -11 15 0 8 -7 15 -15 15 -7 0 -18 7 -23 16 -6 10 -14 14
-22 9 -9 -6 -11 -25 -5 -74 4 -36 6 -77 5 -91 -2 -14 -3 -35 -4 -47 0 -13 -7
-23 -14 -23 -7 0 -23 -7 -36 -15 -23 -15 -23 -18 -10 -60 7 -25 9 -47 5 -49
-16 -10 -61 -14 -61 -5 0 5 5 9 11 9 5 0 -2 11 -16 24 -19 18 -42 26 -88 31
-80 8 -136 34 -186 87 -47 48 -51 69 -17 92 32 21 106 33 106 17 0 -10 -12
-17 -67 -36 -10 -3 -10 -10 -1 -30 9 -20 19 -25 45 -25 19 0 46 -6 61 -14 67
-34 68 -33 86 45 9 39 16 76 16 81 0 9 -23 7 -72 -8 -10 -3 -18 -1 -18 3 0 14
90 54 102 47 7 -5 8 -2 3 7 -5 7 -8 26 -7 42 2 16 -3 36 -10 44 -10 12 -6 19
20 39 25 20 30 29 23 43 -16 30 -25 159 -12 175 8 10 9 16 1 21 -5 3 -10 2
-10 -3 0 -5 -11 -7 -25 -4 -38 7 -67 -4 -107 -42 -25 -23 -37 -43 -35 -57 1
-17 -5 -24 -30 -31 l-32 -8 24 -36 c14 -20 45 -55 70 -78 25 -23 45 -47 45
-53 0 -5 -11 -16 -25 -23 -13 -7 -22 -17 -18 -23 16 -26 -24 7 -116 95 -56 53
-101 101 -101 107 0 6 -7 8 -15 5 -24 -10 -8 21 19 36 18 9 29 9 45 1 18 -10
27 -8 52 10 17 11 28 23 26 25 -2 3 -28 12 -58 22 -37 11 -55 23 -57 36 -4 17
0 16 43 -8 26 -14 62 -26 79 -26 33 0 101 42 89 54 -4 4 -1 12 7 17 11 8 8 10
-12 6 -36 -6 -36 9 -1 20 25 9 21 10 -33 16 -33 3 -69 10 -79 13 -15 6 -17 4
-10 -12 4 -10 8 -30 9 -44 2 -56 -82 -26 -119 44 -20 37 -55 46 -55 13 0 -25
-26 -73 -43 -80 -8 -3 -20 -1 -28 4 -8 5 -27 6 -44 4 -36 -6 -87 6 -93 23 -2
7 7 12 24 12 15 0 36 7 46 17 10 9 18 11 18 5 0 -6 -6 -12 -12 -15 -7 -2 5 -7
26 -11 47 -9 78 12 56 38 -7 9 -10 28 -7 42 2 14 -1 37 -8 50 -11 21 -14 22
-25 9 -16 -19 -31 -20 -24 -1 8 21 55 39 68 26 5 -5 19 -10 31 -9 15 0 10 5
-16 17 -38 18 -42 42 -8 42 11 0 38 -9 60 -20 24 -13 48 -18 61 -15 16 6 31
-5 71 -49 58 -62 109 -88 176 -88 49 -1 69 -11 81 -43 9 -21 11 -8 12 85 1 62
-1 67 -32 80 -16 7 -30 14 -30 16 0 2 13 25 29 51 22 35 27 51 20 65 -15 27
-58 34 -92 14 -16 -9 -32 -14 -35 -12 -6 7 43 71 72 93 l22 17 -24 43 c-25 45
-49 53 -44 15 3 -18 -2 -22 -26 -22 -26 0 -62 25 -62 44 0 4 -10 16 -22 26
-16 13 -22 27 -21 56 1 21 -5 51 -13 66 -18 36 -19 72 0 65 11 -5 12 0 3 24
-9 22 -9 34 1 49 10 16 7 27 -20 70 -17 27 -28 53 -25 57 11 10 78 -30 100
-59 11 -16 24 -28 28 -28 3 0 23 13 44 30 76 61 100 36 101 -106 1 -116 12
-153 55 -178 36 -21 49 -14 25 13 -9 10 -21 35 -27 55 -12 43 4 66 44 66 32 0
52 23 35 38 -7 6 -26 14 -41 17 -26 7 -27 9 -13 24 12 13 13 20 4 29 -19 19
56 46 101 36 20 -5 44 -7 53 -6 13 1 17 -4 15 -20 -2 -12 -9 -24 -15 -26 -8
-2 -10 3 -5 14 4 12 3 15 -6 10 -6 -4 -10 -13 -9 -19 1 -7 -6 -25 -16 -40 -25
-38 -15 -43 27 -14 20 14 33 27 30 31 -9 8 65 37 91 35 43 -3 51 2 62 37 7 21
7 31 2 26 -14 -14 -38 -4 -38 15 0 11 7 13 25 9 20 -5 25 -3 25 12 0 9 7 27
15 39 8 11 17 39 21 62 5 33 13 45 37 58 27 14 33 14 63 -1 27 -12 44 -14 84
-6 52 10 97 0 112 -23 16 -24 7 -29 -43 -22 -62 9 -59 -5 6 -29 25 -10 45 -22
45 -27 0 -5 6 -9 14 -9 7 0 20 -7 27 -17 13 -15 11 -16 -13 -11 l-27 5 25 -30
c15 -18 21 -34 16 -39 -14 -14 -2 -58 17 -60 9 -1 23 -2 31 -3 21 -1 40 -14
40 -26 0 -6 -9 -8 -19 -4 -12 4 -23 0 -28 -9 -7 -13 -18 -12 -79 8 -39 13 -87
31 -108 41 -20 10 -39 15 -42 12 -4 -3 22 -19 57 -35 35 -16 71 -37 79 -47 14
-16 12 -17 -20 -10 l-35 7 45 -41 c47 -44 44 -47 -27 -26 -10 3 10 -9 44 -27
165 -88 163 -86 185 -139 11 -27 24 -49 29 -49 4 0 22 -27 40 -60 34 -63 91
-114 162 -143 20 -9 37 -20 37 -26 0 -17 -60 -53 -99 -58 -24 -3 -49 1 -69 11
-18 9 -32 13 -32 8 0 -16 57 -88 84 -105 37 -24 34 -40 -6 -32 -42 9 -84 31
-129 66 -20 16 -39 26 -43 22 -3 -3 -6 -25 -6 -49 0 -50 56 -167 83 -172 9 -2
31 8 48 22 17 14 34 26 39 26 17 0 40 -32 41 -58 1 -17 3 -21 6 -9 15 55 38
-20 53 -173 14 -138 35 -221 75 -295 18 -33 50 -112 70 -175 20 -63 49 -140
64 -170 37 -73 57 -148 43 -162 -16 -16 -27 -4 -47 49 -10 26 -26 59 -35 73
-10 14 -57 106 -105 205 -80 165 -133 314 -119 336 7 12 -3 11 -27 -2 -13 -7
-30 -7 -52 -1 -18 6 -45 13 -62 17 -29 6 -29 5 11 -23 45 -33 77 -73 89 -112
4 -14 28 -47 52 -75 24 -27 60 -84 81 -125 30 -63 36 -86 36 -141 0 -117 -60
-205 -192 -281 -29 -16 -52 -32 -50 -33 2 -2 60 -13 130 -24 115 -19 369 -71
426 -87 21 -6 22 -4 16 22 -3 16 -18 61 -31 99 -14 39 -34 95 -45 125 -25 72
-100 371 -133 535 -24 113 -28 160 -31 360 -3 127 -9 385 -15 575 -24 826 -24
817 11 1190 6 58 17 177 25 265 26 266 45 405 70 500 13 50 42 185 64 300 39
210 42 246 33 454 l-2 43 -341 -3 c-187 -2 -341 -5 -342 -6z m-2510 -299 c-3
-3 -12 -4 -19 -1 -8 3 -5 6 6 6 11 1 17 -2 13 -5z m553 -1 l-184 -3 42 -21
c51 -26 127 -107 142 -154 8 -25 18 -35 33 -36 75 -4 97 -3 97 4 0 4 9 16 20
27 34 34 100 22 100 -19 0 -18 28 -22 143 -20 17 1 43 1 57 0 67 -2 106 5 118
22 22 28 64 22 84 -14 15 -25 16 -35 6 -52 -6 -12 -11 -39 -9 -59 3 -44 -25
-66 -59 -48 -13 7 -26 7 -37 1 -15 -7 -75 -7 -213 0 -8 0 -27 -3 -42 -7 -18
-4 -36 -1 -52 9 -13 9 -27 12 -32 7 -8 -8 -44 -11 -149 -11 -56 0 -66 -5 -100
-51 -109 -151 -352 -114 -439 65 -57 117 -42 209 50 300 l55 56 -78 4 c-43 1
82 3 277 3 195 0 272 -2 170 -3z m217 1 c-3 -3 -12 -4 -19 -1 -8 3 -5 6 6 6
11 1 17 -2 13 -5z m1496 -244 c52 -118 93 -218 90 -222 -2 -5 -31 -8 -64 -8
l-60 0 -21 50 c-18 43 -22 47 -35 34 -11 -10 -13 -25 -9 -49 l7 -35 -50 0 -50
0 14 40 c12 35 12 40 0 40 -18 0 -18 5 -5 31 12 22 89 28 91 7 0 -10 2 -10 6
0 7 18 63 15 85 -5 22 -20 23 -33 2 -33 -25 0 -10 -25 17 -28 13 -2 33 -11 43
-20 18 -15 18 -14 -1 13 -12 17 -53 71 -92 120 l-70 90 -3 80 -3 80 -17 -83
c-17 -83 -18 -84 -105 -180 -49 -53 -95 -106 -103 -117 -8 -12 9 5 38 37 37
40 61 58 78 58 31 0 30 -7 -8 -73 -30 -54 -33 -55 -80 -59 -33 -2 -49 1 -53
10 -4 10 137 269 242 445 10 16 22 -8 116 -223z m-2587 -109 c14 -25 18 -37 9
-26 -21 24 -75 139 -74 157 0 7 9 -9 20 -36 11 -27 31 -69 45 -95z m1648 -169
c-15 -11 -28 -42 -40 -95 -22 -95 -43 -92 -25 4 19 95 26 109 58 109 l28 0
-21 -18z m606 7 c0 -5 -4 -8 -8 -5 -4 2 -8 -4 -8 -15 0 -18 2 -18 12 -5 6 9
23 16 37 16 14 0 28 6 31 13 5 10 7 10 12 0 3 -7 21 -13 39 -13 18 0 36 6 39
13 5 10 7 10 12 0 3 -7 21 -13 40 -13 29 0 34 -3 34 -24 0 -18 -5 -23 -17 -21
-10 2 -30 4 -45 4 -20 1 -28 6 -28 19 0 14 -2 14 -9 3 -7 -11 -34 -16 -95 -18
l-86 -3 0 30 c0 23 4 30 20 30 11 0 20 -5 20 -11z m293 -9 c6 -24 -8 -36 -17
-14 -8 22 -7 34 3 34 5 0 11 -9 14 -20z m32 0 c7 0 16 6 19 13 5 10 7 10 12 0
3 -7 21 -13 40 -13 19 0 34 -3 34 -7 -1 -20 -19 -28 -67 -30 -40 -2 -53 1 -53
11 0 8 -2 20 -3 28 -2 7 -2 10 0 6 3 -5 11 -8 18 -8z m-830 -32 c116 -29 225
-119 246 -203 9 -35 15 -44 28 -41 114 34 177 -10 188 -132 6 -69 -4 -82 -89
-106 -58 -17 -78 -36 -78 -75 0 -33 31 -43 86 -26 74 23 86 36 95 105 16 110
89 219 176 261 56 27 141 29 178 5 l26 -17 -23 -20 c-23 -20 -23 -20 8 0 44
29 195 101 212 101 7 0 12 6 9 13 -7 20 31 84 66 111 18 14 54 30 81 36 62 14
72 6 11 -9 -28 -7 -60 -25 -83 -47 -34 -33 -34 -34 -4 -10 18 14 52 31 75 37
47 13 122 17 132 7 3 -3 -3 -24 -15 -47 -20 -40 -22 -41 -73 -42 -50 -2 -49
-2 19 -9 88 -9 126 -27 138 -63 13 -37 -5 -70 -61 -113 -40 -31 -133 -70 -133
-56 0 4 23 18 52 32 108 51 148 120 91 157 -46 30 -177 23 -293 -16 -107 -36
-238 -110 -281 -158 -16 -18 -31 -33 -34 -33 -13 0 -3 22 25 53 27 32 30 47 7
47 -5 0 -6 -7 -3 -15 4 -10 -2 -19 -18 -25 -51 -19 -87 -110 -50 -124 18 -7
54 19 54 39 0 7 9 23 20 36 l19 24 1 -23 c0 -13 -5 -32 -10 -43 -6 -10 -8 -19
-5 -19 10 0 36 70 30 80 -3 6 6 21 22 36 l27 25 8 -22 c11 -29 -7 -115 -33
-158 l-20 -34 -90 6 c-86 6 -89 5 -109 -20 -27 -35 -26 -69 4 -88 25 -17 51
-14 120 11 35 13 40 13 57 -2 38 -34 19 -67 -61 -103 -82 -37 -193 -18 -234
40 l-15 21 -43 -30 c-24 -17 -64 -37 -89 -43 -40 -11 -53 -10 -93 5 -25 10
-55 29 -66 43 -28 36 -50 117 -50 186 0 52 -2 58 -17 52 -10 -4 -52 -9 -93
-10 -88 -3 -87 -2 -89 -132 l-1 -83 -91 0 -92 0 7 77 c7 72 24 175 41 248 l8
30 -35 -33 c-36 -34 -108 -62 -159 -62 -15 0 -31 -5 -34 -11 -4 -6 5 -58 21
-116 l28 -105 -21 -17 c-12 -9 -44 -35 -72 -59 l-50 -43 -7 28 c-3 15 -10 44
-14 63 -12 50 -37 228 -59 425 -14 128 -16 172 -8 178 20 14 189 -1 257 -22
85 -26 150 -92 150 -150 0 -50 19 -12 45 92 15 61 30 115 32 120 4 7 19 5 98
-15z m-590 -18 c-18 -20 -18 -26 -2 -180 20 -185 64 -483 77 -522 5 -16 5 -28
1 -28 -14 0 -30 49 -46 143 -9 50 -21 100 -26 110 -5 10 -7 22 -4 26 3 5 -2
65 -11 133 -40 319 -39 309 -19 324 10 8 25 14 33 14 12 0 11 -4 -3 -20z
m-331 -67 c7 -32 -6 -143 -29 -251 -23 -110 -20 -151 19 -235 l34 -75 -23 -28
c-13 -16 -26 -26 -29 -23 -3 3 -30 55 -60 116 -52 106 -58 113 -166 211 -94
86 -114 100 -130 92 -10 -6 -21 -14 -24 -18 -3 -5 38 -38 92 -75 136 -92 154
-114 202 -240 41 -109 47 -137 31 -137 -5 0 -21 36 -36 80 -15 44 -41 102 -58
127 -39 58 -128 131 -216 176 -37 19 -68 42 -69 52 -5 21 50 79 88 95 38 16
58 4 115 -69 84 -107 103 -95 86 56 -7 59 -14 110 -17 112 -6 6 -4 -52 5 -136
7 -72 -1 -95 -18 -50 -4 12 -11 55 -15 95 -7 76 4 118 29 109 7 -3 17 -1 21 3
10 10 115 38 146 39 10 1 19 -9 22 -26z m2186 -68 c0 -2 -14 -28 -31 -56 -17
-29 -46 -83 -65 -121 l-34 -68 29 0 c43 0 78 -16 96 -44 23 -35 10 -70 -82
-213 -141 -219 -131 -196 -148 -328 -9 -66 -21 -139 -27 -162 -12 -50 -34 -59
-24 -10 4 17 13 82 21 142 21 160 19 153 115 299 49 74 98 153 110 176 43 85
10 125 -95 115 -78 -7 -145 -40 -166 -83 -13 -25 -18 -29 -23 -16 -6 17 -2 29
22 56 8 9 16 36 18 60 6 73 49 213 65 213 8 0 20 6 27 13 27 25 29 0 7 -70
-40 -127 -37 -147 4 -39 45 116 53 128 84 134 32 6 97 8 97 2z m-625 -54 c-46
-29 -101 -90 -134 -151 -23 -41 -31 -49 -31 -32 0 25 22 71 54 115 24 33 102
87 125 87 10 0 4 -8 -14 -19z m-1384 -16 c-36 -31 -55 -83 -46 -128 9 -41 -11
-25 -24 19 -12 45 5 92 42 114 46 28 64 25 28 -5z m96 -3 c18 -12 32 -55 26
-86 -9 -46 -91 -83 -130 -58 -37 23 -31 108 9 137 24 16 75 20 95 7z m-747
-71 c-20 -38 -10 -50 72 -93 93 -48 199 -141 230 -202 21 -40 58 -142 58 -158
0 -16 -19 -8 -25 12 -7 23 -25 27 -25 5 0 -24 33 -35 72 -24 34 9 63 36 163
153 36 42 40 53 45 114 4 54 8 67 23 70 15 3 17 -1 10 -25 -4 -15 -8 -103 -7
-195 1 -162 -6 -210 -20 -130 -3 20 -6 65 -6 99 0 34 -4 64 -8 67 -5 3 -25
-17 -46 -44 -89 -116 -167 -161 -221 -126 -27 18 -32 45 -14 77 8 15 6 33 -6
69 -22 67 -137 175 -242 227 -92 46 -103 60 -77 96 22 31 39 36 24 8z m1176
-122 c-8 -52 -18 -125 -22 -162 -4 -48 -10 -65 -17 -58 -14 14 8 240 28 288 9
20 18 34 20 31 3 -3 -1 -47 -9 -99z m-437 -22 c17 -45 51 -231 51 -282 l0 -53
-44 -11 c-72 -18 -103 -15 -110 12 -3 12 -6 93 -6 179 l0 157 33 10 c51 15 67
12 76 -12z m359 -9 c50 -54 33 -121 -46 -184 -72 -57 -132 -117 -132 -131 0
-18 15 -16 31 3 17 21 55 35 74 28 18 -7 20 -35 3 -53 -10 -11 -10 -12 -1 -7
17 10 56 -13 50 -29 -3 -7 6 -18 20 -24 14 -7 23 -18 21 -28 -5 -26 -54 -56
-93 -57 -62 -2 -34 -26 30 -26 21 0 44 9 63 25 49 41 72 32 25 -10 -41 -36
-95 -49 -135 -32 -28 12 -36 22 -47 65 -7 28 -19 56 -27 63 -8 6 -14 18 -14
27 0 8 -7 23 -16 33 -24 27 -10 52 66 114 136 111 159 159 103 217 -19 20 -22
28 -12 28 9 0 25 -10 37 -22z m436 -42 c9 -91 32 -151 72 -186 19 -16 40 -30
46 -30 6 0 9 -3 6 -6 -10 -9 -50 15 -90 54 -21 20 -38 31 -38 25 0 -14 -92
-53 -125 -53 -43 0 -24 24 26 32 53 9 95 39 91 64 -2 11 -6 52 -9 92 -7 91 12
99 21 8z m972 39 c-3 -9 -13 -40 -21 -69 -15 -50 -18 -54 -50 -58 l-35 -4 0
53 c0 56 8 65 69 84 39 11 44 10 37 -6z m-651 -44 c-7 -42 -25 -57 -25 -21 0
22 21 72 28 66 2 -3 1 -23 -3 -45z m1005 -86 c0 -78 -3 -95 -15 -95 -12 0 -15
15 -15 73 0 78 7 117 21 117 5 0 9 -43 9 -95z m-478 43 c-4 -40 -22 -53 -22
-17 0 20 19 64 24 57 2 -1 1 -20 -2 -40z m-1322 -127 c0 -13 -15 -26 -43 -40
-63 -31 -68 -25 -17 19 51 45 60 48 60 21z m905 -45 c22 -8 32 -15 23 -15 -40
-2 -118 46 -118 73 0 5 13 -2 28 -17 15 -15 45 -33 67 -41z m379 50 c-5 -12
-1 -13 23 -4 45 17 87 -7 91 -52 3 -24 -2 -38 -14 -47 -42 -31 -113 -3 -115
45 0 27 0 27 -11 4 -8 -16 -8 -29 1 -49 l13 -28 -22 20 c-17 15 -21 27 -16 54
5 32 31 71 47 71 5 0 6 -7 3 -14z m-1129 -26 c3 -6 17 -7 30 -4 23 6 64 -10
77 -29 10 -16 -3 -37 -23 -37 -18 0 -18 -1 2 -21 20 -20 20 -22 5 -37 -15 -15
-20 -15 -63 0 -26 9 -50 15 -53 12 -8 -9 40 -44 60 -44 24 0 50 -10 50 -20 0
-13 -93 9 -112 27 -14 12 -18 26 -14 48 2 16 8 49 11 73 7 41 17 52 30 32z
m-670 -66 c14 -31 25 -62 25 -68 0 -10 -53 -47 -108 -75 -21 -11 -24 -9 -37
22 -26 62 -29 87 -11 87 9 0 16 -3 16 -7 0 -5 4 -15 10 -23 7 -12 12 -12 29 4
16 15 18 22 9 42 -10 20 -8 28 12 49 13 14 25 25 27 25 2 0 14 -25 28 -56z
m2317 41 c10 -4 12 -30 7 -123 -7 -135 -15 -181 -40 -239 -32 -76 -42 -55 -35
75 10 190 16 266 21 280 5 13 24 16 47 7z m-977 -92 c3 -32 7 -73 10 -90 3
-24 0 -33 -11 -33 -8 0 -14 5 -14 11 0 6 -7 3 -16 -5 -22 -23 -43 -20 -50 8
-7 29 20 86 42 86 11 0 15 9 14 33 -3 42 -2 47 9 47 5 0 12 -26 16 -57z m60
-15 c0 -35 4 -73 8 -85 6 -17 5 -23 -6 -23 -17 0 -27 42 -27 110 0 44 5 60 19
60 3 0 6 -28 6 -62z m-1546 -40 c25 -73 25 -78 8 -78 -8 0 -20 19 -27 43 -7
23 -16 54 -21 70 -6 20 -5 27 6 27 7 0 22 -27 34 -62z m1382 0 c14 -27 -13
-68 -45 -68 -40 0 -49 57 -15 91 22 22 39 16 60 -23z m-207 -32 c1 -48 -18
-51 -22 -3 -2 20 -7 37 -12 37 -10 0 -20 -25 -20 -51 0 -10 -4 -19 -10 -19 -5
0 -10 20 -10 44 0 38 3 45 23 48 31 6 49 -14 51 -56z m100 32 c8 -22 6 -32 -9
-48 -28 -31 -59 -22 -63 18 -2 18 2 40 9 48 19 23 52 13 63 -18z m366 13 c17
-33 12 -49 -17 -54 -26 -4 -25 -4 5 -6 44 -1 31 -21 -14 -21 -33 0 -34 1 -34
38 0 57 38 84 60 43z m95 9 c3 -5 -1 -10 -9 -10 -23 0 -20 -18 5 -25 34 -11
21 -49 -18 -53 -19 -2 -33 1 -33 7 0 6 11 11 25 11 14 0 25 4 25 10 0 5 -11
12 -25 16 -40 10 -31 50 12 53 6 1 15 -3 18 -9z m-2353 -252 c2 -84 1 -163 -4
-176 -9 -27 9 -297 21 -321 5 -9 10 -147 10 -307 2 -266 1 -292 -15 -298 -9
-4 -19 -5 -21 -2 -6 6 -37 657 -49 1031 -4 110 -8 203 -10 207 -5 8 15 16 42
17 21 1 22 -3 26 -151z m879 86 l24 -26 -38 -31 c-43 -37 -45 -52 -15 -84 30
-32 45 -29 69 12 12 19 26 35 33 35 14 0 50 -38 58 -60 15 -42 -48 -100 -109
-100 -63 0 -151 110 -136 171 9 34 61 109 77 109 7 0 23 -12 37 -26z m-165
-59 c-3 -9 1 -18 10 -22 15 -5 15 -7 0 -15 -9 -5 -16 -17 -16 -26 -1 -16 -1
-16 -11 0 -6 11 -16 15 -27 11 -14 -5 -15 -3 -5 7 8 9 9 19 3 31 -8 14 -6 16
9 12 10 -3 22 0 25 6 11 16 19 13 12 -4z m-66 -74 c0 -4 -16 -13 -35 -20 -19
-7 -40 -21 -46 -32 -24 -45 10 -107 47 -84 19 12 15 30 -6 30 -27 0 -22 32 9
54 44 32 57 26 87 -35 26 -54 27 -56 11 -90 -19 -39 -70 -74 -109 -74 -63 0
-126 100 -115 181 6 43 32 79 82 110 l30 19 23 -25 c12 -15 22 -29 22 -34z
m139 -69 c37 -58 38 -76 9 -97 -21 -14 -24 -14 -36 2 -7 9 -20 41 -29 71 -15
46 -15 55 -3 63 23 14 26 12 59 -39z m-492 -87 c13 -38 28 -96 34 -128 14 -67
4 -86 -46 -90 -27 -2 -30 1 -37 42 -4 24 -10 46 -12 48 -11 11 -26 -10 -26
-37 0 -43 -16 -45 -42 -6 -13 20 -29 36 -35 36 -17 0 -16 -30 2 -54 19 -25 19
-60 2 -75 -23 -19 -76 -25 -82 -10 -3 8 -9 73 -15 144 -9 126 -9 131 11 148
12 9 34 17 49 17 24 0 30 -6 42 -42 20 -60 35 -58 43 4 9 66 20 80 59 76 29
-3 33 -8 53 -73z m155 53 c11 -13 33 -54 49 -92 28 -65 28 -69 12 -82 -10 -7
-25 -11 -34 -9 -8 3 -26 -6 -39 -20 -29 -31 -65 -32 -80 -4 -15 28 -4 68 27
100 28 30 18 45 -22 35 -17 -4 -28 0 -39 16 -18 25 -14 33 28 59 41 25 73 24
98 -3z m2268 -38 c0 -5 -9 -10 -20 -10 -11 0 -20 5 -20 10 0 6 9 10 20 10 11
0 20 -4 20 -10z m-1794 -147 c21 -79 32 -107 46 -111 28 -7 22 -21 -17 -39
-37 -18 -55 -13 -37 10 15 18 -45 237 -65 237 -19 0 -16 28 5 33 26 6 37 -15
68 -130z m1314 126 c0 -5 5 -7 10 -4 6 3 17 0 24 -8 12 -12 12 -16 -3 -29 -14
-12 -19 -12 -29 -2 -7 7 -12 18 -12 24 0 14 -13 13 -28 -2 -7 -7 -12 -8 -12
-2 0 14 22 34 37 34 7 0 13 -5 13 -11z m-1171 -38 c5 -9 14 -40 21 -68 7 -33
17 -53 26 -53 21 0 18 -49 -3 -56 -10 -3 -26 -10 -35 -15 -29 -15 -67 -10 -78
10 -14 28 6 68 41 80 27 9 28 11 17 43 -16 51 -32 63 -52 43 -20 -20 -21 -35
-1 -35 17 0 21 -35 5 -45 -18 -11 -40 16 -40 47 0 59 75 97 99 49z m1663 7
c22 -19 48 -60 48 -78 0 -9 -7 -5 -18 11 -9 14 -30 38 -47 52 -20 18 -25 26
-14 27 8 0 22 -6 31 -12z m58 -15 c0 -13 -3 -13 -15 -3 -8 7 -15 16 -15 21 0
5 7 6 15 3 8 -4 15 -13 15 -21z m-622 -12 c-7 -11 -24 -23 -38 -27 l-25 -6 25
-10 c24 -9 24 -10 6 -24 -23 -17 -46 -18 -46 -3 0 25 34 71 60 82 27 10 30 7
18 -12z m703 -63 c6 -13 21 -33 32 -45 11 -13 15 -23 9 -23 -6 0 -22 15 -35
33 -34 46 -40 57 -28 57 6 0 16 -10 22 -22z m-2067 -4 c9 -3 25 -36 36 -75 12
-38 25 -67 30 -64 13 8 22 -13 15 -35 -4 -11 -15 -20 -25 -20 -10 0 -22 -4
-25 -10 -10 -16 -75 -12 -81 5 -12 29 6 67 37 78 26 10 29 15 23 42 -3 16 -12
37 -20 45 -12 12 -16 12 -31 -3 -16 -16 -16 -18 2 -30 21 -16 15 -47 -9 -47
-40 0 -42 78 -3 105 24 17 29 18 51 9z m1923 -21 c3 -7 -4 -9 -16 -6 -12 3
-18 9 -15 15 7 11 26 6 31 -9z m-572 -3 c-3 -5 -11 -10 -16 -10 -6 0 -7 5 -4
10 3 6 11 10 16 10 6 0 7 -4 4 -10z m-1465 -31 c15 -27 9 -59 -12 -73 -28 -17
-47 8 -24 33 13 14 14 21 5 27 -17 10 -40 -25 -37 -56 3 -21 9 -25 43 -28 51
-4 65 -17 65 -57 0 -40 -29 -68 -67 -63 -30 3 -43 32 -24 51 8 8 15 6 25 -9
17 -23 40 -8 34 22 -2 14 -14 20 -43 22 -22 2 -45 8 -52 14 -19 16 -16 69 7
106 23 38 63 44 80 11z m2153 -48 l17 -30 -32 9 c-17 6 -35 15 -40 22 -11 18
-10 38 3 38 5 0 7 6 3 13 -4 6 1 4 12 -5 10 -9 27 -30 37 -47z m-763 -6 c-7
-9 -15 -13 -19 -10 -3 3 1 10 9 15 21 14 24 12 10 -5z m-1538 -22 c9 -10 21
-42 29 -70 7 -29 18 -53 25 -53 7 0 14 -6 17 -12 6 -18 -3 -38 -18 -38 -6 0
-26 -7 -43 -16 -43 -21 -72 -11 -72 25 0 28 20 53 52 64 14 5 15 12 8 38 -12
41 -24 53 -44 46 -17 -7 -22 -37 -6 -37 14 0 13 -37 -2 -46 -13 -8 -38 22 -38
48 0 22 43 68 63 68 8 0 21 -8 29 -17z m2498 3 c0 -30 -70 -55 -89 -32 -14 16
-6 23 37 36 40 12 52 11 52 -4z m-112 -60 c0 -30 -36 -43 -53 -19 -11 14 -13
14 -18 -6 -7 -29 -24 -27 -29 4 -3 14 -1 25 3 25 5 0 9 -4 9 -10 0 -5 15 -1
33 9 43 26 55 25 55 -3z m-2515 -18 c8 -18 20 -52 26 -75 7 -24 16 -43 21 -43
18 0 10 -39 -10 -50 -23 -12 -24 -10 -35 55 -4 22 -13 56 -22 75 -12 30 -16
33 -24 18 -7 -13 -4 -38 11 -89 12 -39 19 -78 15 -87 -9 -23 -21 -4 -39 63
-26 92 -27 93 -37 67 -10 -27 -3 -65 19 -104 17 -30 11 -44 -23 -50 -16 -2
-20 2 -18 22 1 14 -6 54 -15 89 -13 48 -23 65 -39 72 -29 11 -29 24 -1 43 33
23 48 20 48 -11 1 -24 2 -25 11 -10 5 9 16 17 23 17 8 0 19 7 26 15 20 25 47
17 63 -17z m907 7 c0 -7 -6 -18 -14 -22 -7 -4 -19 -26 -26 -48 -17 -54 -69
-169 -74 -164 -2 2 9 42 24 89 16 47 29 95 29 107 1 13 9 24 21 28 11 3 20 11
20 16 0 5 5 9 10 9 6 0 10 -7 10 -15z m-450 -110 c56 -8 78 -12 91 -20 7 -5
21 -10 31 -10 26 -2 126 -82 143 -115 20 -39 19 -57 -7 -89 l-23 -28 -32 36
-32 36 6 -35 c3 -19 12 -40 19 -46 18 -14 18 -20 -2 -28 -8 -3 -13 -2 -10 3 4
5 -15 27 -42 49 -54 45 -195 142 -208 142 -5 0 -17 7 -27 14 -14 11 -16 19 -7
40 6 17 6 26 -1 26 -5 0 -12 -6 -15 -14 -3 -8 -12 -12 -20 -9 -8 3 -14 0 -14
-6 0 -6 -4 -11 -10 -11 -5 0 -10 9 -10 20 0 15 11 22 45 31 25 6 45 16 45 21
0 6 11 7 28 3 15 -4 38 -8 52 -10z m1947 9 c-3 -3 -12 -4 -19 -1 -8 3 -5 6 6
6 11 1 17 -2 13 -5z m-1517 -66 c-17 -74 -31 -118 -38 -118 -4 0 -13 4 -20 9
-11 6 -10 15 6 43 11 19 27 49 36 66 21 41 26 41 16 0z m252 -41 c-23 -23 -42
-48 -42 -55 0 -7 -5 -10 -10 -7 -9 6 -28 -7 -88 -56 -7 -6 -15 -9 -17 -7 -6 6
178 168 190 168 5 0 -10 -19 -33 -43z m1431 -8 c54 -48 95 -105 83 -116 -9 -9
-41 7 -75 38 -27 24 -31 33 -20 40 11 6 5 17 -26 49 -56 57 -30 50 38 -11z
m-2148 -48 c17 -15 41 -35 55 -44 13 -10 20 -17 15 -17 -6 0 -33 18 -62 40
-29 21 -66 46 -83 55 -16 8 -30 18 -30 20 0 12 77 -28 105 -54z m429 -87 c12
-31 7 -84 -9 -84 -16 0 -31 60 -21 85 7 20 22 19 30 -1z m51 -221 c-2 -10 -4
-22 -4 -26 -1 -5 -8 -1 -17 7 -17 17 -11 36 11 36 7 0 12 -8 10 -17z m65 -31
c-1 -17 -19 -34 -29 -28 -8 5 -8 13 -1 27 10 18 30 18 30 1z m-711 -63 c6 -18
7 -38 2 -46 -7 -14 -11 -13 -30 6 -11 11 -21 27 -21 35 0 11 -8 11 -52 0 -29
-8 -64 -14 -78 -13 -14 0 1 7 33 15 32 8 66 18 75 24 34 19 60 12 71 -21z
m291 12 c0 -8 -93 -41 -114 -41 -20 0 19 39 41 43 52 8 73 7 73 -2z m66 -5 c3
-8 13 -12 22 -10 17 5 92 -50 92 -66 0 -12 -30 -1 -55 20 -11 10 -35 25 -52
34 -18 9 -33 21 -33 26 0 15 20 12 26 -4z m-826 -21 c0 -8 -4 -15 -10 -15 -5
0 -10 7 -10 15 0 8 5 15 10 15 6 0 10 -7 10 -15z m1245 -55 c8 -24 -3 -87 -21
-120 -12 -23 -13 -23 -14 -4 0 46 13 144 21 144 4 0 10 -9 14 -20z m382 4 c2
-5 -8 -10 -22 -10 -26 -2 -34 11 -12 19 16 7 30 3 34 -9z m-989 -29 c25 -21
34 -24 57 -15 63 24 132 2 165 -53 11 -18 20 -26 20 -19 0 6 5 12 11 12 7 0 8
-7 4 -17 -4 -10 -8 -24 -8 -30 0 -7 -6 -13 -12 -13 -15 0 -27 -53 -19 -84 3
-14 -1 -28 -11 -36 -28 -23 -37 6 -30 97 6 75 5 83 -15 103 -30 30 -88 22
-137 -17 -64 -51 -102 -73 -117 -67 -10 4 -2 16 29 45 43 40 43 40 29 74 -8
19 -14 37 -14 40 0 12 20 3 48 -20z m397 -15 c4 -6 -8 -10 -30 -10 -22 0 -34
4 -30 10 3 6 17 10 30 10 13 0 27 -4 30 -10z m604 -11 c-8 -5 -21 -9 -29 -9
-12 1 -11 4 4 15 10 8 23 12 29 8 5 -3 3 -9 -4 -14z m-499 -28 c0 -8 -10 -26
-22 -39 l-23 -24 23 -15 c21 -14 21 -17 7 -32 -35 -36 -86 -127 -81 -146 5
-20 5 -20 -9 -1 -22 29 -18 62 11 112 33 56 22 74 -42 74 -54 0 -56 13 -7 33
26 10 45 12 62 6 28 -11 25 -14 45 36 13 31 19 36 26 25 5 -8 10 -21 10 -29z
m-1294 -6 c12 -18 15 -36 10 -66 l-7 -41 43 36 c23 20 46 36 52 36 11 -1 1
-10 -62 -60 -31 -25 -31 -27 -46 -170 -31 -306 -31 -296 -10 -280 61 46 73 62
63 87 -22 58 -6 113 33 113 15 0 18 -8 18 -44 0 -24 7 -62 15 -85 12 -34 12
-46 2 -62 -16 -26 -19 -24 -42 14 -17 28 -20 29 -23 12 -4 -22 -30 -55 -44
-55 -11 0 -43 -33 -51 -53 -10 -27 -49 -45 -111 -53 -43 -5 -57 -4 -52 5 4 6
13 11 19 11 8 0 12 23 13 68 1 37 12 137 24 222 19 137 20 156 6 164 -13 9
-13 11 0 21 9 6 17 37 21 83 7 90 28 122 78 122 26 0 39 -6 51 -25z m224 6 c0
-5 -10 -11 -22 -14 -13 -3 -34 -9 -48 -13 -20 -5 -23 -4 -13 6 6 7 26 16 45
20 18 4 34 8 36 9 1 1 2 -3 2 -8z m1540 -21 c0 -5 -2 -10 -4 -10 -3 0 -8 5
-11 10 -3 6 -1 10 4 10 6 0 11 -4 11 -10z m-1400 -10 c13 -8 13 -10 0 -14 -8
-3 -26 -6 -39 -8 -13 -2 -29 -10 -34 -19 -8 -13 -3 -23 26 -49 49 -43 60 -95
26 -122 -13 -11 -41 -35 -62 -54 -43 -38 -93 -67 -109 -62 -6 2 22 26 63 54
41 27 75 56 75 64 1 8 5 23 9 33 5 13 -4 27 -34 55 -52 48 -57 88 -11 105 17
6 30 15 30 19 0 11 42 10 60 -2z m1385 -108 c-2 -2 -15 4 -29 15 -28 20 -46
54 -46 85 0 16 11 5 39 -38 21 -32 37 -61 36 -62z m-1530 98 c3 -6 -1 -7 -9
-4 -18 7 -21 14 -7 14 6 0 13 -4 16 -10z m393 -73 c2 -15 1 -27 -2 -27 -18 0
-36 15 -36 29 0 41 33 39 38 -2z m208 18 c7 -18 -3 -65 -14 -65 -7 0 -32 57
-32 73 0 14 41 7 46 -8z m643 -29 c30 -29 62 -121 59 -174 -1 -39 -14 -51 -22
-19 -6 25 -32 30 -114 21 -51 -5 -54 -7 -75 -50 -24 -51 -22 -56 46 -75 28 -7
48 -7 69 0 45 16 74 14 117 -9 41 -20 111 -94 111 -116 0 -28 -22 -23 -64 16
l-44 41 -10 -29 c-5 -15 -28 -49 -51 -76 -61 -70 -64 -79 -39 -111 l21 -28
-24 13 c-13 7 -29 20 -36 29 -15 19 -17 65 -3 56 5 -3 7 0 5 8 -3 7 3 22 15
32 19 17 19 19 3 31 -16 11 -14 13 17 21 25 7 36 16 41 38 5 15 6 32 4 35 -3
4 -47 11 -99 15 -52 4 -102 12 -112 19 -47 35 -9 129 65 159 22 9 59 24 81 34
46 18 46 19 24 72 -18 47 -50 71 -96 72 -30 1 -31 2 -8 8 37 11 88 -4 119 -33z
m-1392 -28 c-3 -8 -6 -5 -6 6 -1 11 2 17 5 13 3 -3 4 -12 1 -19z m1056 -37 c4
-4 1 -14 -8 -21 -13 -11 -15 -10 -9 3 4 12 -5 19 -35 28 -22 7 -38 16 -35 20
5 9 71 -14 87 -30z m262 6 c18 -15 24 -28 20 -40 -10 -25 -18 -21 -42 23 -24
45 -17 51 22 17z m-871 -32 c3 -13 34 -54 67 -90 33 -35 59 -69 57 -75 -2 -6
-18 9 -35 34 -21 30 -40 46 -53 46 -56 0 -108 55 -88 93 13 26 45 21 52 -8z
m-74 -10 c0 -18 -32 -65 -41 -60 -5 4 -8 1 -7 -7 4 -18 -145 -88 -159 -75 -1
2 31 22 73 46 41 24 84 56 96 72 20 26 38 38 38 24z m328 -15 c69 -31 101 -58
132 -113 29 -51 36 -89 24 -134 -11 -41 -32 -27 -32 22 1 37 -5 52 -37 91 -36
43 -39 45 -52 28 -7 -10 -13 -43 -13 -76 0 -62 -9 -72 -30 -34 -17 33 -7 97
20 115 11 7 20 17 20 22 0 15 -58 39 -93 39 -26 0 -36 5 -40 19 -11 43 33 52
101 21z m828 -26 c18 -14 18 -14 -6 -3 -31 14 -36 19 -24 19 6 0 19 -7 30 -16z
m-447 -126 l-12 -23 -9 30 c-8 32 -3 61 16 81 16 17 21 -59 5 -88z m1487 14
c-11 -10 -15 4 -8 28 l7 25 3 -23 c2 -13 1 -26 -2 -30z m27 8 c-7 -28 -13 -25
-13 6 0 14 4 23 9 20 5 -3 7 -15 4 -26z m-135 -3 c2 -10 -3 -17 -12 -17 -10 0
-16 9 -16 21 0 24 23 21 28 -4z m86 8 c-4 -8 -14 -15 -24 -15 -10 0 -20 7 -24
15 -4 11 2 15 24 15 22 0 28 -4 24 -15z m94 -13 c4 -24 2 -25 -21 -16 -9 3
-13 13 -10 25 7 25 27 19 31 -9z m-221 -3 c2 -8 -15 -22 -39 -33 -44 -21 -78
-49 -78 -67 0 -6 -8 -9 -17 -7 -23 4 -24 33 -2 32 12 -1 15 4 11 19 -4 17 -1
19 16 15 18 -5 22 -2 22 18 0 28 8 30 27 7 13 -16 14 -16 8 7 -6 24 -5 24 9 6
16 -19 16 -19 16 3 0 24 23 25 27 0z m-2227 -43 c-28 -13 -39 2 -16 20 16 11
21 11 28 1 5 -7 0 -15 -12 -21z m2555 -35 c-17 -15 -17 -15 -12 1 5 13 2 15
-11 11 -15 -5 -14 -3 2 16 18 19 21 20 29 5 6 -11 4 -21 -8 -33z m-1761 13 c3
-8 2 -12 -4 -9 -6 3 -10 10 -10 16 0 14 7 11 14 -7z m976 -20 c0 -8 -7 -17
-15 -20 -20 -8 -67 4 -60 15 3 5 13 7 24 4 11 -3 21 2 25 12 7 19 26 11 26
-11z m830 -9 c0 -8 -9 -15 -20 -15 -20 0 -26 11 -13 23 12 13 33 7 33 -8z
m-329 -37 c-42 -45 -89 -138 -69 -138 6 0 1 -11 -12 -25 -13 -14 -32 -25 -42
-25 -22 0 -22 -4 -4 -63 26 -87 103 -158 209 -193 l42 -14 -45 6 c-123 17
-230 123 -230 227 0 24 -8 40 -26 56 -22 19 -25 28 -20 59 3 20 10 38 16 40 5
2 10 10 10 18 0 14 83 79 100 79 5 0 12 3 16 8 4 4 27 7 51 7 l45 0 -41 -42z
m-1897 11 c14 -11 26 -25 26 -30 0 -6 -7 -3 -16 5 -8 9 -17 16 -19 16 -7 0
-120 -55 -125 -61 -18 -19 -79 -48 -85 -39 -3 5 -2 10 3 10 5 0 29 19 53 41
52 49 98 79 120 79 9 0 28 -9 43 -21z m1706 0 c12 -9 12 -10 -4 -5 -16 6 -17
4 -6 -9 14 -16 3 -20 -19 -6 -7 5 -10 14 -7 20 9 14 17 14 36 0z m547 -9 c-4
-17 -2 -20 14 -15 10 4 19 2 19 -4 0 -18 -35 -17 -55 2 -17 15 -18 19 -5 27
24 15 33 12 27 -10z m-2607 -35 c0 -5 -5 -3 -10 5 -5 8 -10 20 -10 25 0 6 5 3
10 -5 5 -8 10 -19 10 -25z m508 6 c17 -17 32 -32 32 -35 0 -12 -28 -5 -40 9
-17 21 -30 9 -30 -28 0 -27 6 -35 37 -52 60 -32 112 -167 77 -196 -20 -16 -26
-6 -55 79 -15 47 -28 66 -47 75 -43 21 -69 9 -120 -52 -37 -44 -53 -56 -67
-51 -17 6 -17 7 -1 13 9 4 15 11 12 16 -9 13 73 101 88 95 21 -8 24 6 17 63
-4 29 -4 50 -1 48 4 -3 12 7 18 20 15 33 40 31 80 -4z m355 -2 c9 -11 12 -30
9 -42 l-7 -22 -3 23 c-5 30 -33 28 -62 -3 -13 -14 -30 -25 -37 -25 -8 0 -12
-4 -9 -9 8 -13 -33 -46 -43 -35 -6 5 11 34 41 72 54 67 85 79 111 41z m-723
-19 c0 -4 -15 -11 -32 -14 -18 -3 -42 -8 -53 -10 -74 -14 -125 -17 -125 -7 0
14 105 44 129 36 11 -3 22 -2 25 3 6 11 56 3 56 -8z m510 0 c-14 -4 -32 -8
-40 -9 -13 -1 -13 0 0 9 8 5 26 9 40 9 l25 -1 -25 -8z m1384 4 c22 -9 20 -34
-3 -34 -21 0 -45 23 -34 33 8 9 17 9 37 1z m629 -29 c8 -19 -8 -28 -33 -20
-33 11 -24 26 21 34 4 0 9 -6 12 -14z m-1610 -30 c-37 -46 -56 -48 -33 -4 6
10 17 19 25 19 8 0 15 5 15 10 0 6 5 10 10 10 6 0 -2 -16 -17 -35z m431 5 c25
-10 46 -23 46 -29 0 -7 33 -17 77 -23 19 -2 33 -48 35 -122 2 -70 6 -77 63
-122 19 -15 19 -15 -5 -9 -14 4 -30 7 -36 7 -14 2 -38 38 -25 38 6 0 4 12 -4
26 -7 15 -11 32 -9 38 2 6 -6 16 -18 21 -13 6 -27 25 -33 45 -15 51 -23 60
-56 60 -21 0 -29 5 -29 18 0 20 -55 66 -70 57 -5 -3 -11 -1 -15 5 -10 16 30
12 79 -10z m536 10 c12 -8 12 -10 -5 -10 -17 0 -17 -2 -5 -10 13 -8 13 -10 -1
-10 -21 0 -29 9 -22 26 6 16 13 17 33 4z m660 -29 c0 -5 -9 -7 -20 -4 -11 3
-20 7 -20 9 0 2 9 4 20 4 11 0 20 -4 20 -9z m-1794 -36 c13 -21 19 -23 31 -13
11 9 16 9 22 -1 6 -10 10 -9 14 3 19 50 126 -26 127 -90 0 -26 -17 -42 -59
-54 -41 -11 -49 4 -16 32 46 40 27 76 -44 85 -28 4 -48 1 -65 -11 -14 -9 -33
-16 -43 -16 -17 1 -79 48 -72 54 12 10 66 35 76 36 7 0 20 -11 29 -25z m1132
-5 c-1 -26 -5 -30 -27 -29 l-26 1 25 7 c23 7 24 8 6 18 -20 11 -14 33 9 33 9
0 13 -11 13 -30z m670 3 c-2 -10 3 -23 12 -30 13 -10 10 -12 -19 -13 -29 0
-32 2 -21 15 9 10 9 15 1 15 -6 0 -11 7 -11 15 0 9 9 15 21 15 14 0 19 -5 17
-17z m-2876 -33 c3 -24 6 -25 68 -26 75 0 102 4 95 16 -8 13 25 21 46 10 21
-12 34 -50 26 -81 -4 -15 0 -23 13 -26 10 -3 21 -16 24 -29 4 -13 11 -24 17
-24 8 0 7 -5 -1 -15 -12 -14 -18 -11 -52 22 l-39 38 -97 1 c-53 1 -167 2 -253
3 l-156 1 10 45 10 45 54 0 c29 0 52 3 52 8 -3 19 3 22 23 11 31 -17 88 -29
104 -22 8 3 14 13 14 22 0 21 21 44 31 34 4 -5 9 -19 11 -33z m1648 25 c0 -8
-4 -15 -9 -15 -5 0 -11 7 -15 15 -3 9 0 15 9 15 8 0 15 -7 15 -15z m-1006 -20
c-7 -16 -24 -21 -24 -6 0 8 7 13 27 20 1 1 0 -6 -3 -14z m1579 -30 c-4 -15
-36 -12 -41 3 -3 9 3 13 19 10 13 -1 23 -7 22 -13z m665 -12 c2 -8 -5 -13 -17
-13 -21 0 -35 13 -24 24 10 10 36 3 41 -11z m-1195 -8 c31 -2 50 -22 42 -43
-3 -7 2 -28 9 -47 23 -53 -6 -54 -49 -1 -26 32 -49 48 -80 57 -25 7 -45 16
-45 20 0 13 46 28 70 22 14 -3 38 -7 53 -8z m280 -35 c8 -22 11 -40 6 -40 -16
0 -10 -24 14 -54 15 -18 39 -32 72 -40 27 -7 51 -18 53 -24 5 -15 -24 -16 -33
-2 -8 13 -25 13 -25 1 0 -5 13 -12 30 -16 16 -4 32 -11 35 -16 4 -5 13 -9 21
-9 8 0 13 4 9 9 -3 5 5 13 17 16 13 4 35 19 50 32 l27 26 41 -36 c39 -33 93
-59 180 -86 33 -10 33 -10 -17 -6 -55 4 -104 24 -140 57 l-22 20 -35 -22 c-20
-12 -36 -23 -36 -25 0 -8 56 -38 72 -39 10 -1 18 -4 18 -8 0 -5 0 -12 0 -18 0
-19 -42 -10 -81 18 -21 15 -37 32 -35 38 3 6 -1 11 -7 11 -46 -1 -77 4 -72 13
3 6 2 10 -4 10 -5 0 -11 -5 -13 -11 -3 -9 -14 -9 -43 1 -59 19 -105 57 -127
106 -16 38 -23 44 -49 44 -18 0 -28 4 -24 10 3 6 17 7 29 4 21 -5 23 -3 18 22
-3 19 0 31 13 41 30 21 41 16 58 -27z m261 11 c8 -13 -7 -30 -26 -31 -16 0 -7
19 10 23 13 4 11 5 -5 6 -13 0 -23 5 -23 10 0 14 34 8 44 -8z m-854 -33 c23
-52 25 -72 6 -87 -12 -10 -17 -7 -29 16 -19 37 -36 100 -29 107 15 16 35 2 52
-36z m1510 32 c13 -9 13 -10 0 -9 -8 0 -24 4 -35 9 l-20 9 20 0 c11 0 27 -4
35 -9z m-1888 -12 c-22 -22 -12 -35 46 -56 31 -12 66 -28 76 -35 22 -16 14
-37 -15 -37 -24 0 -105 36 -114 50 -4 6 -10 8 -14 5 -5 -2 -16 4 -26 15 -29
32 -8 65 45 69 11 1 11 -2 2 -11z m1868 -8 c23 -15 -2 -35 -27 -21 -10 6 -13
11 -5 11 7 0 10 5 7 10 -8 13 5 13 25 0z m-750 -14 c0 -2 -11 -6 -25 -8 -13
-3 -22 -1 -19 3 5 9 44 13 44 5z m144 -4 c2 -4 -4 -13 -14 -20 -14 -9 -19 -8
-24 3 -7 18 27 34 38 17z m-1776 -22 c-15 -23 -31 -21 -36 3 -3 12 4 17 22 17
24 0 25 -2 14 -20z m-52 -46 c-8 -8 -22 -14 -31 -14 -14 0 -12 4 6 19 27 22
47 18 25 -5z m875 3 c-10 -9 -11 -8 -5 6 3 10 9 15 12 12 3 -3 0 -11 -7 -18z
m337 -24 c-1 -21 2 -46 6 -56 6 -12 5 -17 -4 -15 -7 2 -15 -3 -18 -11 -3 -10
0 -12 12 -8 18 7 20 -1 6 -23 -8 -13 -11 -13 -27 2 -14 15 -15 23 -6 50 6 18
14 48 18 66 9 43 15 41 13 -5z m447 -184 c15 -15 -18 -10 -45 6 l-25 15 30 -6
c17 -4 34 -11 40 -15z"/>
<path d="M942 4487 c-6 -7 -15 -33 -21 -57 -27 -123 71 -239 203 -240 58 0
131 31 148 63 l11 22 -24 -21 c-40 -35 -70 -47 -125 -47 -137 0 -246 153 -189
263 16 32 15 39 -3 17z"/>
<path d="M1112 4468 c-25 -25 -13 -56 33 -88 49 -34 53 -41 30 -60 -12 -10
-21 -10 -40 -2 -14 7 -25 8 -25 3 0 -26 71 -27 94 -2 26 29 16 62 -29 92 -49
34 -52 55 -8 53 18 -1 30 2 27 7 -8 13 -68 11 -82 -3z"/>
<path d="M1514 4449 c-18 -30 0 -149 23 -149 13 0 15 9 11 45 -4 35 -2 48 11
55 14 8 14 9 -3 10 -14 0 -17 6 -14 25 5 26 -14 36 -28 14z"/>
<path d="M1933 4421 c-6 -10 -8 -22 -3 -27 5 -5 10 -27 12 -49 2 -27 8 -40 18
-40 11 0 14 10 11 44 -2 29 2 47 11 52 10 7 10 9 1 9 -7 0 -13 7 -13 15 0 21
-23 19 -37 -4z"/>
<path d="M951 4402 c-1 -43 20 -91 55 -124 39 -36 75 -48 137 -47 l52 2 -55 7
c-31 4 -64 12 -75 18 -39 20 -78 71 -95 124 -17 49 -19 50 -19 20z"/>
<path d="M1240 4381 c0 -16 4 -41 10 -55 9 -24 14 -26 55 -23 51 3 50 1 40 62
-4 31 -11 45 -22 45 -12 0 -14 -10 -11 -47 2 -38 0 -48 -13 -51 -13 -2 -18 8
-23 48 -5 34 -11 50 -21 50 -10 0 -15 -10 -15 -29z"/>
<path d="M1373 4389 c4 -13 7 -39 7 -56 0 -23 5 -33 16 -33 12 0 14 10 12 52
-2 43 -7 54 -22 56 -15 3 -18 0 -13 -19z"/>
<path d="M1429 4401 c8 -5 17 -29 20 -53 4 -30 11 -44 23 -46 15 -3 17 2 12
30 -13 77 -13 78 -42 78 -20 0 -23 -3 -13 -9z"/>
<path d="M1592 4398 c-20 -20 -15 -76 7 -88 24 -12 68 -13 75 -1 4 5 -3 7 -14
4 -23 -6 -50 12 -50 33 0 10 13 14 40 14 44 0 49 8 22 33 -24 22 -31 21 -25
-3 4 -15 0 -20 -16 -20 -24 0 -27 10 -9 28 9 9 9 12 -3 12 -8 0 -20 -5 -27
-12z"/>
<path d="M1760 4395 c15 -18 15 -17 -28 -35 -25 -10 -32 -18 -30 -34 3 -18 10
-21 54 -22 l52 -2 -5 42 c-6 46 -18 66 -40 66 -13 0 -13 -3 -3 -15z m10 -54
c0 -24 -18 -37 -32 -23 -8 8 -7 16 2 27 17 21 30 19 30 -4z"/>
<path d="M1830 4395 c-15 -18 -1 -40 31 -50 29 -10 23 -35 -8 -36 -19 -1 -22
-3 -10 -6 63 -16 95 43 37 67 -32 13 -38 25 -17 33 7 4 6 6 -4 6 -9 1 -22 -6
-29 -14z"/>
<path d="M1210 4250 c-9 -6 -10 -10 -3 -10 6 0 15 5 18 10 8 12 4 12 -15 0z"/>
<path d="M2127 4013 c-9 -38 -30 -140 -47 -228 -17 -88 -37 -188 -44 -222 -7
-35 -9 -63 -5 -63 14 0 18 14 49 166 17 82 47 206 66 275 18 69 34 129 34 132
0 4 -9 7 -19 7 -16 0 -22 -13 -34 -67z"/>
<path d="M3369 4009 c-35 -36 -37 -41 -18 -36 13 4 35 7 49 7 19 0 22 2 10 10
-12 7 -11 13 10 34 20 22 21 26 6 26 -9 0 -35 -19 -57 -41z"/>
<path d="M1667 4024 c-3 -3 -4 -11 -2 -17 2 -7 20 -127 40 -267 47 -337 45
-327 55 -310 4 8 -3 99 -16 203 -12 103 -26 234 -30 292 -6 89 -9 105 -24 105
-9 0 -19 -3 -23 -6z"/>
<path d="M1820 4005 c0 -10 11 -15 31 -15 21 0 40 -10 61 -30 25 -26 29 -36
24 -63 -4 -23 -3 -28 4 -17 30 46 -3 98 -78 124 -37 13 -42 13 -42 1z"/>
<path d="M2256 3971 c-4 -5 9 -19 28 -30 52 -33 61 -78 25 -127 -19 -26 -18
-25 10 4 17 18 31 40 31 50 0 36 -81 125 -94 103z"/>
<path d="M3305 3970 c-3 -5 -1 -10 4 -10 6 0 11 5 11 10 0 6 -2 10 -4 10 -3 0
-8 -4 -11 -10z"/>
<path d="M1787 3943 c-11 -10 -8 -87 4 -122 14 -39 37 -40 70 -4 17 20 18 23
3 10 -20 -17 -44 -23 -44 -11 0 3 9 17 20 31 11 14 20 35 20 47 1 21 1 21 20
-3 l20 -23 0 25 c0 15 -9 32 -22 41 -23 16 -79 22 -91 9z"/>
<path d="M2191 3902 c-5 -10 -13 -46 -17 -80 -5 -51 -4 -63 9 -68 17 -6 67 17
86 40 19 22 4 20 -26 -4 -28 -21 -53 -26 -53 -10 0 6 6 10 14 10 23 0 57 34
59 58 l1 24 18 -22 18 -22 0 26 c0 19 -9 32 -32 46 -41 25 -64 25 -77 2z"/>
<path d="M2810 3793 c-92 -104 -103 -253 -24 -323 47 -40 60 -38 19 3 -44 44
-60 105 -45 165 15 61 42 111 79 146 28 27 33 46 11 46 -4 0 -23 -17 -40 -37z"/>
<path d="M2462 3793 c-54 -77 -68 -209 -29 -277 29 -51 63 -75 112 -81 34 -4
36 -4 10 3 -84 23 -131 96 -122 191 4 54 44 152 67 166 15 9 12 25 -4 25 -8 0
-23 -12 -34 -27z"/>
<path d="M2580 3811 c0 -6 9 -26 21 -46 15 -24 19 -44 15 -63 -5 -20 -4 -23 4
-12 15 24 12 62 -10 98 -20 32 -30 40 -30 23z"/>
<path d="M2535 3746 c-19 -45 -19 -70 -1 -85 20 -17 54 2 62 34 6 26 -14 76
-34 83 -7 2 -19 -12 -27 -32z m45 -48 c0 -32 -15 -19 -17 15 -2 23 0 28 7 17
5 -8 10 -23 10 -32z"/>
<path d="M1164 3946 c3 -13 9 -63 13 -112 l7 -89 7 55 c4 30 7 81 8 113 1 52
-1 57 -20 57 -17 0 -20 -4 -15 -24z"/>
<path d="M3252 3803 c-28 -119 -31 -142 -18 -137 6 2 12 24 13 48 1 24 9 72
18 106 9 34 14 64 12 67 -3 2 -14 -36 -25 -84z"/>
<path d="M1492 3844 c-16 -11 -22 -25 -21 -52 l1 -37 9 30 c4 16 18 37 30 46
28 21 9 33 -19 13z"/>
<path d="M1493 3653 c-24 -9 -12 -303 12 -303 10 0 13 37 11 155 0 85 -3 155
-6 154 -3 0 -11 -3 -17 -6z"/>
<path d="M1800 3325 c-17 -20 7 -20 34 0 19 15 19 15 -1 15 -11 0 -26 -7 -33
-15z"/>
<path d="M1790 3280 c-8 -5 -12 -11 -10 -14 3 -2 14 2 24 10 22 15 10 19 -14
4z"/>
<path d="M1831 3266 c-10 -12 -8 -13 9 -9 25 7 37 23 17 23 -8 0 -20 -6 -26
-14z"/>
<path d="M1810 3219 c0 -5 5 -7 10 -4 6 3 10 8 10 11 0 2 -4 4 -10 4 -5 0 -10
-5 -10 -11z"/>
<path d="M1855 3210 l-30 -20 30 0 c28 1 65 19 65 34 0 13 -36 5 -65 -14z"/>
<path d="M3203 3410 c-24 -10 -31 -34 -13 -45 6 -3 10 0 10 8 0 8 10 22 23 30
24 18 14 21 -20 7z"/>
<path d="M2080 3370 c20 -13 53 -13 45 0 -3 6 -18 10 -33 10 -21 0 -24 -2 -12
-10z"/>
<path d="M2030 3350 c0 -5 12 -10 28 -10 21 0 24 2 12 10 -20 13 -40 13 -40 0z"/>
<path d="M2060 3310 c8 -5 24 -10 35 -10 17 0 17 2 5 10 -8 5 -24 10 -35 10
-17 0 -17 -2 -5 -10z"/>
<path d="M2660 3229 c-7 -11 -9 -28 -5 -37 6 -15 8 -15 21 2 16 23 19 56 4 56
-5 0 -14 -9 -20 -21z"/>
<path d="M2562 3238 c-16 -16 -15 -48 2 -48 7 0 19 7 26 16 18 21 -9 51 -28
32z"/>
<path d="M2450 3230 c-8 -15 -9 -25 -2 -32 17 -17 44 -1 40 24 -4 30 -24 34
-38 8z"/>
<path d="M2836 3243 c-11 -11 -6 -23 9 -23 8 0 15 4 15 9 0 13 -16 22 -24 14z"/>
<path d="M1015 2720 c-8 -26 -1 -35 20 -26 18 7 17 37 -2 43 -6 2 -14 -5 -18
-17z"/>
<path d="M1648 2619 c-24 -13 -23 -29 1 -29 21 0 45 23 34 33 -8 9 -15 8 -35
-4z"/>
<path d="M1393 2505 c-3 -9 -3 -18 0 -21 7 -8 47 15 47 26 0 16 -40 11 -47 -5z"/>
<path d="M1128 2399 c-10 -5 -18 -14 -18 -19 0 -14 34 -12 48 2 26 26 5 38
-30 17z"/>
<path d="M1681 2186 c7 -15 15 -23 17 -16 3 7 -3 19 -13 28 -15 16 -16 15 -4
-12z"/>
<path d="M1610 2198 c0 -11 30 -78 35 -78 3 0 -2 17 -10 37 -15 36 -25 52 -25
41z"/>
<path d="M581 1640 c-1 -8 9 -22 22 -29 l22 -15 -25 -7 c-23 -6 -23 -7 -3 -8
24 -1 39 14 23 24 -6 4 -8 11 -5 16 4 5 0 9 -9 9 -8 0 -17 6 -19 13 -4 8 -6 7
-6 -3z"/>
<path d="M595 1530 c-4 -6 -11 -8 -16 -5 -5 4 -9 1 -9 -4 0 -14 17 -14 26 0 4
8 9 7 15 -2 6 -10 9 -10 9 -2 0 16 -17 26 -25 13z"/>
<path d="M603 1485 c0 -8 4 -12 9 -9 5 3 6 10 3 15 -9 13 -12 11 -12 -6z"/>
<path d="M569 1476 c8 -10 9 -16 1 -21 -5 -3 -10 -11 -10 -18 0 -6 6 -2 14 8
13 18 13 18 24 -1 8 -14 12 -15 12 -4 0 13 1 13 10 0 7 -11 10 -12 10 -2 0 8
-9 16 -20 19 -11 3 -20 9 -20 13 0 4 -7 11 -16 14 -14 5 -15 4 -5 -8z"/>
<path d="M573 1423 c-18 -6 -16 -28 2 -43 20 -16 19 -22 -5 -50 -26 -30 -25
-38 2 -14 19 17 21 17 15 2 -4 -10 -2 -18 3 -18 13 0 5 83 -9 88 -20 7 -12 24
9 19 11 -3 20 -2 20 3 0 11 -22 18 -37 13z"/>
<path d="M530 1315 c0 -8 2 -15 4 -15 2 0 6 7 10 15 3 8 1 15 -4 15 -6 0 -10
-7 -10 -15z"/>
<path d="M544 1248 c2 -7 11 -13 21 -13 10 0 19 6 21 13 1 7 0 8 -3 2 -2 -5
-11 -10 -18 -10 -7 0 -16 5 -18 10 -3 6 -4 5 -3 -2z"/>
<path d="M548 1193 c6 -2 18 -2 25 0 6 3 1 5 -13 5 -14 0 -19 -2 -12 -5z"/>
<path d="M542 1161 c1 -3 -2 -14 -7 -24 -4 -10 -5 -21 -1 -24 3 -4 6 1 6 11 0
9 10 20 22 25 l22 8 -22 5 c-12 3 -21 3 -20 -1z"/>
<path d="M520 1093 c0 -6 5 -15 10 -18 8 -5 7 -11 -1 -21 -6 -8 -10 -17 -7
-19 2 -3 15 9 27 26 13 17 20 33 17 36 -3 4 -6 0 -6 -8 0 -11 -2 -11 -10 1 -9
13 -10 13 -10 0 0 -13 -1 -13 -10 0 -6 9 -10 10 -10 3z"/>
<path d="M495 1051 c-3 -5 -2 -12 3 -15 5 -3 9 1 9 9 0 17 -3 19 -12 6z"/>
<path d="M553 1045 c0 -8 4 -12 9 -9 4 3 8 9 8 15 0 5 -4 9 -8 9 -5 0 -9 -7
-9 -15z"/>
<path d="M3134 1151 c-32 -20 -74 -67 -74 -84 0 -5 -9 -17 -19 -26 -16 -14
-17 -20 -8 -38 11 -20 14 -20 32 -6 16 13 17 15 3 10 -10 -4 -18 -2 -18 3 0 6
4 10 10 10 5 0 7 6 4 14 -3 7 2 16 11 20 9 3 13 10 10 16 -3 5 -1 10 5 10 6 0
8 5 5 10 -6 10 17 40 30 40 4 0 18 9 32 20 32 25 18 26 -23 1z"/>
<path d="M3250 2581 c0 -16 38 -33 45 -20 8 13 6 15 -22 23 -14 5 -23 3 -23
-3z"/>
<path d="M2755 2574 c17 -2 67 -11 113 -20 45 -9 85 -14 88 -12 9 10 -137 38
-185 37 -29 -1 -35 -3 -16 -5z"/>
<path d="M2294 2532 c4 -7 15 -12 24 -12 9 0 27 -12 40 -27 l24 -28 -22 33
c-12 17 -25 32 -30 32 -5 0 -16 3 -26 7 -12 4 -15 3 -10 -5z"/>
<path d="M2769 2523 c-13 -15 -12 -15 7 -5 16 9 26 8 44 -5 21 -15 22 -15 11
6 -14 25 -43 27 -62 4z"/>
<path d="M3049 2512 c7 -5 11 -15 7 -21 -5 -7 -1 -9 9 -5 8 4 26 -1 40 -10 14
-9 25 -12 25 -6 0 5 -10 16 -22 24 -27 16 -81 33 -59 18z"/>
<path d="M2763 2362 c-15 -10 -35 -61 -27 -73 3 -5 15 -9 27 -9 12 0 29 -4 37
-10 33 -20 42 48 10 80 -22 22 -29 24 -47 12z m24 -28 c-9 -9 -28 6 -21 18 4
6 10 6 17 -1 6 -6 8 -13 4 -17z"/>
<path d="M2466 2270 c9 -97 10 -98 49 -98 40 0 49 24 14 36 -13 5 -31 30 -45
63 l-24 54 6 -55z"/>
<path d="M3016 2279 c-22 -44 -13 -55 41 -53 54 2 66 16 46 55 -21 42 -66 41
-87 -2z m54 11 c0 -5 -4 -10 -10 -10 -5 0 -10 5 -10 10 0 6 5 10 10 10 6 0 10
-4 10 -10z"/>
<path d="M2750 2176 c0 -4 17 -28 38 -54 20 -26 46 -65 57 -85 32 -60 57 -59
118 5 29 30 63 62 77 71 31 22 20 19 -52 -16 -52 -26 -61 -27 -100 -17 -24 7
-56 26 -73 43 -37 39 -65 62 -65 53z"/>
<path d="M2595 2061 c-3 -6 -11 -9 -16 -6 -5 4 -9 1 -9 -4 0 -13 10 -14 30 -1
8 5 12 12 8 15 -3 4 -9 1 -13 -4z"/>
<path d="M2700 2040 c-8 -5 -25 -7 -36 -4 -12 3 -25 1 -28 -5 -8 -12 11 -14
66 -5 21 4 35 10 32 15 -7 11 -15 11 -34 -1z"/>
<path d="M1210 1960 c0 -5 5 -10 10 -10 6 0 10 5 10 10 0 6 -4 10 -10 10 -5 0
-10 -4 -10 -10z"/>
<path d="M2087 1943 c8 -19 31 -23 35 -5 4 12 -2 17 -17 17 -13 0 -21 -5 -18
-12z"/>
<path d="M2615 1915 c-14 -36 -16 -56 -9 -93 l9 -47 68 -24 c37 -13 67 -26 67
-30 -1 -10 -81 -56 -92 -53 -6 2 -8 -8 -4 -23 7 -27 -2 -75 -14 -75 -4 0 -5
11 -2 25 6 35 -11 31 -25 -6 -7 -17 -16 -28 -20 -26 -5 3 -9 -3 -10 -13 -2
-26 44 -34 52 -8 10 28 27 9 23 -24 -3 -21 0 -32 14 -39 11 -6 18 -6 18 0 0 5
-5 11 -12 13 -10 4 -10 13 -1 43 9 27 9 41 2 46 -6 3 -9 17 -7 30 4 29 34 28
59 -1 16 -18 17 -19 33 -1 18 19 22 61 6 61 -19 0 -10 38 14 53 26 18 46 7 46
-25 0 -14 8 -18 38 -18 26 0 55 -11 92 -35 30 -19 62 -35 70 -35 9 0 34 -18
55 -40 32 -33 46 -40 77 -40 76 0 140 -47 141 -103 0 -20 5 -22 54 -23 l54 -2
-28 18 c-66 40 -133 142 -133 202 0 8 -6 22 -13 33 -13 16 -14 15 -9 -13 2
-20 -2 -42 -12 -57 -20 -30 -42 -35 -26 -6 13 26 13 52 -1 28 -9 -16 -13 -13
-32 22 -12 22 -49 62 -82 89 -34 28 -70 67 -80 87 -19 34 -22 36 -57 30 -42
-7 -139 17 -157 39 -9 11 -20 12 -44 5 -18 -5 -48 -9 -69 -9 l-36 0 10 36 c15
58 -6 65 -27 9z"/>
<path d="M3293 1941 c-20 -17 -21 -24 -14 -62 l9 -44 1 44 c1 26 8 52 18 63
21 23 14 23 -14 -1z"/>
<path d="M2531 1913 c0 -16 4 -37 8 -48 6 -15 9 -9 12 28 3 33 0 47 -8 47 -8
0 -13 -12 -12 -27z"/>
<path d="M3086 1841 c-3 -5 3 -11 15 -14 16 -4 18 -3 8 9 -13 16 -16 17 -23 5z"/>
<path d="M2562 1745 c6 -14 15 -25 19 -25 5 0 3 11 -3 25 -6 14 -15 25 -19 25
-5 0 -3 -11 3 -25z"/>
<path d="M3340 1732 c0 -12 19 -26 26 -19 2 2 -2 10 -11 17 -9 8 -15 8 -15 2z"/>
<path d="M3555 1650 c-11 -12 -31 -20 -52 -20 -18 0 -33 -5 -33 -11 0 -14 74
-89 88 -89 8 0 23 124 16 138 0 1 -9 -7 -19 -18z"/>
<path d="M2560 1616 c0 -23 -7 -38 -20 -47 -28 -19 -43 -123 -16 -113 9 3 16
2 16 -4 0 -6 14 3 30 20 17 16 30 33 30 37 0 17 -39 5 -59 -19 -19 -23 -20
-23 -21 -5 0 20 7 35 47 96 26 39 30 69 8 69 -10 0 -15 -10 -15 -34z"/>
<path d="M2860 1621 c0 -6 4 -13 10 -16 6 -3 7 1 4 9 -7 18 -14 21 -14 7z"/>
<path d="M2926 1571 c5 -5 23 -12 39 -16 l30 -6 -25 15 c-28 17 -60 22 -44 7z"/>
<path d="M2736 1544 c-14 -36 -7 -44 37 -44 23 0 49 5 57 10 13 9 12 12 -4 25
-18 13 -22 13 -41 -5 -29 -27 -38 -25 -31 5 7 27 -8 35 -18 9z"/>
<path d="M2840 1486 l-35 -10 29 -4 c16 -2 33 1 39 7 16 16 5 19 -33 7z"/>
<path d="M2935 1480 c-18 -19 -17 -20 3 -20 11 0 24 5 27 10 11 17 44 11 55
-11 7 -12 9 -37 5 -58 -5 -28 -2 -41 9 -51 9 -7 17 -10 17 -6 3 16 1 42 -3 56
-3 8 -11 34 -17 58 -11 39 -14 42 -45 42 -20 0 -40 -8 -51 -20z"/>
<path d="M3226 1462 c-3 -6 -1 -14 5 -17 14 -9 20 -2 10 14 -6 8 -11 9 -15 3z"/>
<path d="M2505 1416 c-11 -36 -14 -80 -6 -94 9 -19 -4 -66 -16 -59 -5 3 -9
-13 -11 -34 -2 -39 -2 -39 25 -33 16 4 40 16 56 26 32 23 36 66 12 119 -14 30
-15 31 -14 9 4 -79 -2 -120 -16 -120 -12 0 -15 16 -15 84 0 84 10 112 28 80
11 -20 25 -3 16 19 -6 17 -54 20 -59 3z"/>
<path d="M3127 1359 c7 -7 15 -10 18 -7 3 3 -2 9 -12 12 -14 6 -15 5 -6 -5z"/>
<path d="M3435 1350 c3 -5 8 -10 11 -10 2 0 4 5 4 10 0 6 -5 10 -11 10 -5 0
-7 -4 -4 -10z"/>
<path d="M2470 1316 c0 -9 5 -16 10 -16 6 0 10 4 10 9 0 6 -4 13 -10 16 -5 3
-10 -1 -10 -9z"/>
<path d="M2328 1188 c14 -15 25 -19 32 -12 6 6 -1 14 -22 22 l-32 12 22 -22z"/>
<path d="M3176 991 c-10 -11 -16 -25 -15 -30 2 -6 12 3 21 19 20 35 18 38 -6
11z"/>
<path d="M3149 933 c-5 -52 -3 -75 7 -84 8 -7 14 -7 19 1 3 5 2 10 -3 10 -5 0
-9 16 -7 35 1 20 -2 38 -7 41 -4 3 -8 2 -9 -3z"/>
</g>
</svg>
